singleCycleCpu/user/sim/wave.vcd
$date
	Tue Dec 19 23:47:30 2023
$end
$version
	Icarus Verilog
$end
$timescale
	1ps
$end
$scope module testbench $end
$var parameter 32 ! ADDR_WIDTH $end
$var parameter 32 " DATA_WIDTH $end
$var parameter 32 # MAIN_FRE $end
$var reg 32 $ addr [31:0] $end
$var reg 32 % data [31:0] $end
$var reg 1 & sys_clk $end
$var reg 1 ' sys_rst $end
$scope module u_singleCycleCpu $end
$var wire 1 & clk $end
$var wire 1 ( rtype $end
$var wire 6 ) op [5:0] $end
$var wire 1 * jump $end
$var wire 6 + func [5:0] $end
$var wire 1 , branch $end
$var wire 1 - RegWr $end
$var wire 1 . RegDst $end
$var wire 1 / MemtoReg $end
$var wire 1 0 MemWr $end
$var wire 1 1 ExtOp $end
$var wire 1 2 ALUsrc $end
$var wire 3 3 ALUctr [2:0] $end
$scope module ctr $end
$var wire 1 4 sw $end
$var wire 1 ( rtype $end
$var wire 1 5 ori $end
$var wire 6 6 op [5:0] $end
$var wire 1 7 lw $end
$var wire 1 8 jump $end
$var wire 6 9 func [5:0] $end
$var wire 1 , branch $end
$var wire 1 : beq $end
$var wire 1 ; addiu $end
$var wire 1 < Rtype $end
$var wire 1 - RegWr $end
$var wire 1 . RegDst $end
$var wire 1 / MemtoReg $end
$var wire 1 0 MemWr $end
$var wire 1 * Jump $end
$var wire 1 1 ExtOp $end
$var wire 3 = ALUctr [2:0] $end
$var wire 1 2 ALUSrc $end
$var wire 3 > ALUOp1 [2:0] $end
$var wire 3 ? ALUOp0 [2:0] $end
$scope module u_aluCtr $end
$var wire 6 @ func [5:0] $end
$var reg 3 A ALUctr [2:0] $end
$upscope $end
$scope module u_insDecoder $end
$var wire 1 4 sw $end
$var wire 1 5 ori $end
$var wire 6 B op [5:0] $end
$var wire 1 7 lw $end
$var wire 1 8 jump $end
$var wire 1 : beq $end
$var wire 1 ; addiu $end
$var wire 1 < Rtype $end
$upscope $end
$scope module u_mainCtr $end
$var wire 1 2 ALUSrc $end
$var wire 1 1 ExtOp $end
$var wire 1 * Jump $end
$var wire 1 0 MemWr $end
$var wire 1 / MemtoReg $end
$var wire 1 . RegDst $end
$var wire 1 - RegWr $end
$var wire 1 < Rtype $end
$var wire 1 ; addiu $end
$var wire 1 : beq $end
$var wire 1 , branch $end
$var wire 1 8 jump $end
$var wire 1 7 lw $end
$var wire 1 5 ori $end
$var wire 1 ( rtype $end
$var wire 1 4 sw $end
$var wire 3 C ALUOp [2:0] $end
$upscope $end
$upscope $end
$scope module dp $end
$var wire 3 D ALUctr [2:0] $end
$var wire 1 2 ALUsrc $end
$var wire 1 1 ExtOp $end
$var wire 1 0 MemWr $end
$var wire 1 / MemtoReg $end
$var wire 1 . RegDst $end
$var wire 1 - RegWr $end
$var wire 1 E RegWr_real $end
$var wire 1 , branch $end
$var wire 1 & clk $end
$var wire 1 * jump $end
$var wire 1 F zero $end
$var wire 32 G result [31:0] $end
$var wire 1 H overflow $end
$var wire 6 I op [5:0] $end
$var wire 32 J memdata [31:0] $end
$var wire 32 K instruction [31:0] $end
$var wire 32 L imm32 [31:0] $end
$var wire 16 M imm16 [15:0] $end
$var wire 6 N func [5:0] $end
$var wire 32 O busW [31:0] $end
$var wire 32 P busB [31:0] $end
$var wire 32 Q busA [31:0] $end
$var wire 5 R Rw [4:0] $end
$var wire 5 S Rt [4:0] $end
$var wire 5 T Rs [4:0] $end
$var wire 5 U Rd [4:0] $end
$var wire 32 V B [31:0] $end
$scope module alu $end
$var wire 3 W ALUctr [2:0] $end
$var wire 32 X B [31:0] $end
$var wire 1 H Overflow $end
$var wire 1 Y mux2_op1 $end
$var wire 1 Z mux2_op2 $end
$var wire 32 [ mux3_op3 [31:0] $end
$var wire 32 \ mux3_op2 [31:0] $end
$var wire 1 ] less $end
$var wire 1 F Zero $end
$var wire 32 ^ SUBctr_ext [31:0] $end
$var wire 1 _ SUBctr $end
$var wire 1 ` SIGctr $end
$var wire 32 a Result [31:0] $end
$var wire 1 b OVctr $end
$var wire 2 c OPctr [1:0] $end
$var wire 32 d B_to_add [31:0] $end
$var wire 1 e Add_Sign $end
$var wire 32 f Add_Result [31:0] $end
$var wire 1 g Add_Overflow $end
$var wire 1 h Add_Carry $end
$var wire 32 i A [31:0] $end
$var parameter 32 j n $end
$scope module adder $end
$var wire 1 h Add_Carry $end
$var wire 1 g Add_Overflow $end
$var wire 1 F Zero $end
$var wire 1 k cout $end
$var wire 1 _ Cin $end
$var wire 32 l B [31:0] $end
$var wire 1 e Add_Sign $end
$var wire 32 m Add_Result [31:0] $end
$var wire 32 n A [31:0] $end
$var parameter 32 o n $end
$upscope $end
$scope module extend $end
$var wire 1 _ SUBctr $end
$var reg 32 p extend_out [31:0] $end
$upscope $end
$scope module gen $end
$var wire 3 q ALUctr [2:0] $end
$var parameter 32 r n $end
$var reg 2 s OPctr [1:0] $end
$var reg 1 b OVctr $end
$var reg 1 ` SIGctr $end
$var reg 1 _ SUBctr $end
$upscope $end
$scope module mux1 $end
$var wire 1 Y choice1 $end
$var wire 1 Z choice2 $end
$var wire 1 ` sel $end
$var reg 1 ] out $end
$upscope $end
$scope module mux2 $end
$var wire 1 ] sel $end
$var reg 32 t out [31:0] $end
$upscope $end
$scope module mux3 $end
$var wire 32 u choice1 [31:0] $end
$var wire 32 v choice3 [31:0] $end
$var wire 2 w sel [1:0] $end
$var wire 32 x choice2 [31:0] $end
$var parameter 32 y n $end
$var reg 32 z out [31:0] $end
$upscope $end
$scope module or_gate $end
$var wire 32 { operendB [31:0] $end
$var wire 32 | out [31:0] $end
$var wire 32 } operendA [31:0] $end
$var parameter 32 ~ n $end
$upscope $end
$scope module x $end
$var wire 32 !" operendA [31:0] $end
$var wire 32 "" operendB [31:0] $end
$var parameter 32 #" n $end
$var reg 32 $" out [31:0] $end
$upscope $end
$upscope $end
$scope module extendByExtop $end
$var wire 1 1 ExtOp $end
$var wire 16 %" imm16 [15:0] $end
$var wire 32 &" imm32 [31:0] $end
$upscope $end
$scope module ifu $end
$var wire 1 , branch $end
$var wire 1 & clk $end
$var wire 1 * jump $end
$var wire 1 F zero $end
$var wire 32 '" instruction [31:0] $end
$var wire 30 (" extend_imme [31:2] $end
$var wire 30 )" curAddr [31:2] $end
$var reg 30 *" nextAddr [31:2] $end
$scope module extend16to30 $end
$var wire 16 +" in [15:0] $end
$var wire 30 ," out [29:0] $end
$upscope $end
$scope module insMem $end
$var wire 32 -" InsAddr [31:0] $end
$var reg 32 ." InsData [31:0] $end
$upscope $end
$scope module pc $end
$var wire 1 & clk $end
$var wire 30 /" nextAddr [29:0] $end
$var reg 30 0" curAddr [29:0] $end
$upscope $end
$upscope $end
$scope module mem $end
$var wire 32 1" Address [31:0] $end
$var wire 1 0 WE $end
$var wire 1 & clk $end
$var wire 32 2" data [31:0] $end
$var parameter 32 3" n $end
$var reg 32 4" dataout [31:0] $end
$upscope $end
$scope module muxReg $end
$var wire 5 5" Rd [4:0] $end
$var wire 1 . RegDst $end
$var wire 5 6" Rt [4:0] $end
$var wire 5 7" Rw [4:0] $end
$upscope $end
$scope module regs $end
$var wire 1 & Clock $end
$var wire 5 8" Ra [4:0] $end
$var wire 5 9" Rb [4:0] $end
$var wire 1 E RegWr $end
$var wire 5 :" Rw [4:0] $end
$var wire 32 ;" busW [31:0] $end
$var parameter 32 <" n $end
$var reg 32 =" busA [31:0] $end
$var reg 32 >" busB [31:0] $end
$upscope $end
$upscope $end
$upscope $end
$upscope $end
$enddefinitions $end
$comment Show the parameter values. $end
$dumpall
b100000 <"
b100000 3"
b100000 #"
b100000 ~
b100000 y
b11 r
b100000 o
b100000 j
b1100100 #
b100000 "
b100000 !
$end
#0
$dumpvars
bx >"
bx ="
bx ;"
bx :"
bx 9"
bx 8"
bx 7"
bx 6"
bx 5"
bx 4"
bx 2"
bx 1"
bx 0"
b0 /"
bx ."
bx00 -"
bx ,"
bx +"
b0 *"
bx )"
bx ("
bx '"
bx &"
bx %"
bx $"
bx ""
bx !"
bx }
bx |
bx {
bx z
bx x
bx w
bx v
bx u
bx t
bx s
bx q
bx p
bx n
bx m
bx l
xk
bx i
xh
xg
bx f
xe
bx d
bx c
xb
bx a
x`
x_
bx ^
x]
bx \
bx [
xZ
xY
bx X
bx W
bx V
bx U
bx T
bx S
bx R
bx Q
bx P
bx O
bx N
bx M
bx L
bx K
bx J
bx I
xH
bx G
xF
xE
bx D
bx C
bx B
bx A
bx @
bx ?
bx >
bx =
x<
x;
x:
bx 9
x8
x7
bx 6
x5
x4
bx 3
x2
x1
x0
x/
x.
x-
x,
bx +
x*
bx )
x(
1'
0&
b0 %
b0 $
$end
#50000
0'
#100000
0Z
b11111111111111111111111111111111 [
b11111111111111111111111111111111 t
b11111111111111111111111111111111 v
0g
1]
b1 O
b1 ;"
1Y
b1 J
b1 4"
1h
0e
1F
b0 G
b0 a
b0 z
b0 1"
b0 \
b0 x
b0 |
b0 f
b0 m
b0 u
0k
b0 Q
b0 i
b0 n
b0 }
b0 ="
b1 *"
b1 /"
1E
b0 d
b0 l
b0 $"
0H
b0 ^
b0 p
b0 ""
b0 c
b0 s
b0 w
0`
0b
0_
b0 V
b0 X
b0 {
b0 !"
12
11
1-
b0 3
b0 =
b0 D
b0 W
b0 q
b100 R
b100 7"
b100 :"
b0 L
b0 &"
0*
08
0,
0:
00
04
1/
17
0;
05
0(
0.
b0 ?
b0 C
0<
b100011 )
b100011 6
b100011 B
b100011 I
b100 S
b100 6"
b100 9"
b0 T
b0 8"
b0 U
b0 5"
b0 ("
b0 ,"
b0 +"
b0 M
b0 %"
b0 +
b0 9
b0 @
b0 N
b10001100000001000000000000000000 K
b10001100000001000000000000000000 '"
b10001100000001000000000000000000 ."
b0 -"
b0 )"
b0 0"
b1 $
b1 %
1&
#200000
b1 P
b1 2"
b1 >"
0&
#300000
bx P
bx 2"
bx >"
b10 *"
b10 /"
b101 R
b101 7"
b101 :"
b101 S
b101 6"
b101 9"
b10001100000001010000000000000000 K
b10001100000001010000000000000000 '"
b10001100000001010000000000000000 ."
b100 -"
b1 )"
b1 0"
b10 %
b10 $
1&
#400000
b1 P
b1 2"
b1 >"
0&
#500000
b1 Q
b1 i
b1 n
b1 }
b1 ="
b11 *"
b11 /"
b10000000000000000 J
b10000000000000000 4"
0F
b0 [
b0 t
b0 v
b10 G
b10 a
b10 z
b10 1"
b10 f
b10 m
b10 u
0]
b1 \
b1 x
b1 |
b1 d
b1 l
b1 $"
1E
02
01
1`
1b
b1 V
b1 X
b1 {
b1 !"
1-
b10 O
b10 ;"
b110 R
b110 7"
b110 :"
b1 3
b1 =
b1 D
b1 W
b1 q
b11000000100000 L
b11000000100000 &"
b1 >
b1 A
0/
07
1(
1.
b1 ?
b1 C
1<
b0 )
b0 6
b0 B
b0 I
b100 T
b100 8"
b110 U
b110 5"
b11000000100000 ("
b11000000100000 ,"
b11000000100000 +"
b11000000100000 M
b11000000100000 %"
b100000 +
b100000 9
b100000 @
b100000 N
b100001010011000000100000 K
b100001010011000000100000 '"
b100001010011000000100000 ."
b1000 -"
b10 )"
b10 0"
b11 $
b11 %
1&
#600000
0&
#700000
b10 P
b10 2"
b10 >"
b0 Q
b0 i
b0 n
b0 }
b0 ="
b100 *"
b100 /"
b1 J
b1 4"
b100 O
b100 ;"
b100 G
b100 a
b100 z
b100 1"
b100 f
b100 m
b100 u
0E
b11111111111111111111111111111111 [
b11111111111111111111111111111111 t
b11111111111111111111111111111111 v
b100 \
b100 x
b100 |
b100 d
b100 l
b100 $"
0-
1]
b100 V
b100 X
b100 {
b100 !"
0`
0b
12
11
b0 3
b0 =
b0 D
b0 W
b0 q
b100 L
b100 &"
10
14
0(
0.
b0 ?
b0 C
0<
b101011 )
b101011 6
b101011 B
b101011 I
b110 S
b110 6"
b110 9"
b0 T
b0 8"
b0 U
b0 5"
b100 ("
b100 ,"
b100 +"
b100 M
b100 %"
b100 +
b100 9
b100 @
b100 N
b10101100000001100000000000000100 K
b10101100000001100000000000000100 '"
b10101100000001100000000000000100 ."
b1100 -"
b11 )"
b11 0"
b100 %
b100 $
1&
#800000
b10 J
b10 4"
0&
#900000
bx P
bx 2"
bx >"
b101 *"
b101 /"
1E
1-
b10 O
b10 ;"
b111 R
b111 7"
b111 :"
00
04
1/
17
b100011 )
b100011 6
b100011 B
b100011 I
b111 S
b111 6"
b111 9"
b10001100000001110000000000000100 K
b10001100000001110000000000000100 '"
b10001100000001110000000000000100 ."
b10000 -"
b100 )"
b100 0"
b101 $
b101 %
1&
#1000000
b10 P
b10 2"
b10 >"
0&
#1100000
b1 Q
b1 i
b1 n
b1 }
b1 ="
b110 *"
b110 /"
1Z
0H
0g
1e
b1xxxxxxxx J
b1xxxxxxxx 4"
b11111111111111111111111111111111 [
b11111111111111111111111111111111 t
b11111111111111111111111111111111 v
0h
b11111111111111111111111111111111 G
b11111111111111111111111111111111 a
b11111111111111111111111111111111 z
b11111111111111111111111111111111 1"
1]
b11111111111111111111111111111111 f
b11111111111111111111111111111111 m
b11111111111111111111111111111111 u
1Y
b11111111111111111111111111111111 ^
b11111111111111111111111111111111 p
b11111111111111111111111111111111 ""
b11 \
b11 x
b11 |
b11111111111111111111111111111101 d
b11111111111111111111111111111101 l
b11111111111111111111111111111101 $"
1E
02
01
1`
1b
1_
b10 V
b10 X
b10 {
b10 !"
1-
b11111111111111111111111111111111 O
b11111111111111111111111111111111 ;"
b1000 R
b1000 7"
b1000 :"
b101 3
b101 =
b101 D
b101 W
b101 q
b100000000100010 L
b100000000100010 &"
b101 >
b101 A
0/
07
1(
1.
b1 ?
b1 C
1<
b0 )
b0 6
b0 B
b0 I
b100 T
b100 8"
b1000 U
b1000 5"
b100000000100010 ("
b100000000100010 ,"
b100000000100010 +"
b100000000100010 M
b100000000100010 %"
b100010 +
b100010 9
b100010 @
b100010 N
b100001110100000000100010 K
b100001110100000000100010 '"
b100001110100000000100010 ."
b10100 -"
b101 )"
b101 0"
b110 %
b110 $
1&
#1200000
0&
#1300000
b11111111111111111111111111111111 P
b11111111111111111111111111111111 2"
b11111111111111111111111111111111 >"
b0 Q
b0 i
b0 n
b0 }
b0 ="
b111 *"
b111 /"
0Z
0g
0e
b1 J
b1 4"
b1000 O
b1000 ;"
0E
b11111111111111111111111111111111 [
b11111111111111111111111111111111 t
b11111111111111111111111111111111 v
b1000 G
b1000 a
b1000 z
b1000 1"
1h
b1000 \
b1000 x
b1000 |
b1000 d
b1000 l
b1000 $"
0-
1]
b1000 f
b1000 m
b1000 u
1Y
b0 ^
b0 p
b0 ""
b1000 V
b1000 X
b1000 {
b1000 !"
0`
0b
0_
12
11
b0 3
b0 =
b0 D
b0 W
b0 q
b1000 L
b1000 &"
10
14
0(
0.
b0 ?
b0 C
0<
b101011 )
b101011 6
b101011 B
b101011 I
b1000 S
b1000 6"
b1000 9"
b0 T
b0 8"
b0 U
b0 5"
b1000 ("
b1000 ,"
b1000 +"
b1000 M
b1000 %"
b1000 +
b1000 9
b1000 @
b1000 N
b10101100000010000000000000001000 K
b10101100000010000000000000001000 '"
b10101100000010000000000000001000 ."
b11000 -"
b110 )"
b110 0"
b111 $
b111 %
1&
#1400000
b11111111111111111111111111111111 J
b11111111111111111111111111111111 4"
0&
#1500000
bx P
bx 2"
bx >"
bx Q
bx i
bx n
bx }
bx ="
b1000 *"
b1000 /"
xH
xZ
xg
xe
xF
xh
bx f
bx m
bx u
xk
xY
bx \
bx x
bx |
bx d
bx l
bx $"
xE
bx c
bx s
bx w
x`
xb
x_
bx V
bx X
bx {
bx !"
x2
x1
x-
bx1xxx O
bx1xxx ;"
bx 3
bx =
bx D
bx W
bx q
bx R
bx 7"
bx :"
bx L
bx &"
x*
x8
x,
x:
x0
x4
x/
x7
x;
x5
x(
x.
bx ?
bx C
x<
bx )
bx 6
bx B
bx I
bx S
bx 6"
bx 9"
bx T
bx 8"
bx U
bx 5"
bx ("
bx ,"
bx +"
bx M
bx %"
bx +
bx 9
bx @
bx N
bx K
bx '"
bx ."
b11100 -"
b111 )"
b111 0"
b1000 %
b1000 $
1&
#1600000
0&
#1700000
b1001 *"
b1001 /"
b100000 -"
b1000 )"
b1000 0"
b1001 $
b1001 %
1&
#1800000
0&
#1900000
b1010 *"
b1010 /"
b100100 -"
b1001 )"
b1001 0"
b1010 %
b1010 $
1&
#2000000
0&
#2100000
b1011 *"
b1011 /"
b101000 -"
b1010 )"
b1010 0"
b1011 $
b1011 %
1&
#2200000
0&
#2300000
b1100 *"
b1100 /"
b101100 -"
b1011 )"
b1011 0"
b1100 %
b1100 $
1&
#2400000
0&
#2500000
b1101 *"
b1101 /"
b110000 -"
b1100 )"
b1100 0"
b1101 $
b1101 %
1&
#2600000
0&
#2700000
b1110 *"
b1110 /"
b110100 -"
b1101 )"
b1101 0"
b1110 %
b1110 $
1&
#2800000
0&
#2900000
b1111 *"
b1111 /"
b111000 -"
b1110 )"
b1110 0"
b1111 $
b1111 %
1&
#3000000
0&
#3100000
b10000 *"
b10000 /"
b111100 -"
b1111 )"
b1111 0"
b10000 %
b10000 $
1&
#3200000
0&
#3300000
b10001 *"
b10001 /"
b1000000 -"
b10000 )"
b10000 0"
b10001 $
b10001 %
1&
#3400000
0&
#3500000
b10010 *"
b10010 /"
b1000100 -"
b10001 )"
b10001 0"
b10010 %
b10010 $
1&
#3600000
0&
#3700000
b10011 *"
b10011 /"
b1001000 -"
b10010 )"
b10010 0"
b10011 $
b10011 %
1&
#3800000
0&
#3900000
b10100 *"
b10100 /"
b1001100 -"
b10011 )"
b10011 0"
b10100 %
b10100 $
1&
#4000000
0&
#4100000
b10101 *"
b10101 /"
b1010000 -"
b10100 )"
b10100 0"
b10101 $
b10101 %
1&
#4200000
0&
#4300000
b10110 *"
b10110 /"
b1010100 -"
b10101 )"
b10101 0"
b10110 %
b10110 $
1&
#4400000
0&
#4500000
b10111 *"
b10111 /"
b1011000 -"
b10110 )"
b10110 0"
b10111 $
b10111 %
1&
#4600000
0&
#4700000
b11000 *"
b11000 /"
b1011100 -"
b10111 )"
b10111 0"
b11000 %
b11000 $
1&
#4800000
0&
#4900000
b11001 *"
b11001 /"
b1100000 -"
b11000 )"
b11000 0"
b11001 $
b11001 %
1&
#5000000
0&
#5100000
b11010 *"
b11010 /"
b1100100 -"
b11001 )"
b11001 0"
b11010 %
b11010 $
1&
#5200000
0&
#5300000
b11011 *"
b11011 /"
b1101000 -"
b11010 )"
b11010 0"
b11011 $
b11011 %
1&
#5400000
0&
#5500000
b11100 *"
b11100 /"
b1101100 -"
b11011 )"
b11011 0"
b11100 %
b11100 $
1&
#5600000
0&
#5700000
b11101 *"
b11101 /"
b1110000 -"
b11100 )"
b11100 0"
b11101 $
b11101 %
1&
#5800000
0&
#5900000
b11110 *"
b11110 /"
b1110100 -"
b11101 )"
b11101 0"
b11110 %
b11110 $
1&
#6000000
0&
#6100000
b11111 *"
b11111 /"
b1111000 -"
b11110 )"
b11110 0"
b11111 $
b11111 %
1&
#6200000
0&
#6300000
b100000 *"
b100000 /"
b1111100 -"
b11111 )"
b11111 0"
b100000 %
b100000 $
1&
#6400000
0&
#6500000
b100001 *"
b100001 /"
b10000000 -"
b100000 )"
b100000 0"
b100001 $
b100001 %
1&
#6600000
0&
#6700000
b100010 *"
b100010 /"
b10000100 -"
b100001 )"
b100001 0"
b100010 %
b100010 $
1&
#6800000
0&
#6900000
b100011 *"
b100011 /"
b10001000 -"
b100010 )"
b100010 0"
b100011 $
b100011 %
1&
#7000000
0&
#7100000
b100100 *"
b100100 /"
b10001100 -"
b100011 )"
b100011 0"
b100100 %
b100100 $
1&
#7200000
0&
#7300000
b100101 *"
b100101 /"
b10010000 -"
b100100 )"
b100100 0"
b100101 $
b100101 %
1&
#7400000
0&
#7500000
b100110 *"
b100110 /"
b10010100 -"
b100101 )"
b100101 0"
b100110 %
b100110 $
1&
#7600000
0&
#7700000
b100111 *"
b100111 /"
b10011000 -"
b100110 )"
b100110 0"
b100111 $
b100111 %
1&
#7800000
0&
#7900000
b101000 *"
b101000 /"
b10011100 -"
b100111 )"
b100111 0"
b101000 %
b101000 $
1&
#8000000
0&
#8100000
b101001 *"
b101001 /"
b10100000 -"
b101000 )"
b101000 0"
b101001 $
b101001 %
1&
#8200000
0&
#8300000
b101010 *"
b101010 /"
b10100100 -"
b101001 )"
b101001 0"
b101010 %
b101010 $
1&
#8400000
0&
#8500000
b101011 *"
b101011 /"
b10101000 -"
b101010 )"
b101010 0"
b101011 $
b101011 %
1&
#8600000
0&
#8700000
b101100 *"
b101100 /"
b10101100 -"
b101011 )"
b101011 0"
b101100 %
b101100 $
1&
#8800000
0&
#8900000
b101101 *"
b101101 /"
b10110000 -"
b101100 )"
b101100 0"
b101101 $
b101101 %
1&
#9000000
0&
#9100000
b101110 *"
b101110 /"
b10110100 -"
b101101 )"
b101101 0"
b101110 %
b101110 $
1&
#9200000
0&
#9300000
b101111 *"
b101111 /"
b10111000 -"
b101110 )"
b101110 0"
b101111 $
b101111 %
1&
#9400000
0&
#9500000
b110000 *"
b110000 /"
b10111100 -"
b101111 )"
b101111 0"
b110000 %
b110000 $
1&
#9600000
0&
#9700000
b110001 *"
b110001 /"
b11000000 -"
b110000 )"
b110000 0"
b110001 $
b110001 %
1&
#9800000
0&
#9900000
b110010 *"
b110010 /"
b11000100 -"
b110001 )"
b110001 0"
b110010 %
b110010 $
1&
#10000000
0&
#10100000
b110011 *"
b110011 /"
b11001000 -"
b110010 )"
b110010 0"
b110011 $
b110011 %
1&
#10200000
0&
#10300000
b110100 *"
b110100 /"
b11001100 -"
b110011 )"
b110011 0"
b110100 %
b110100 $
1&
#10400000
0&
#10500000
b110101 *"
b110101 /"
b11010000 -"
b110100 )"
b110100 0"
b110101 $
b110101 %
1&
#10600000
0&
#10700000
b110110 *"
b110110 /"
b11010100 -"
b110101 )"
b110101 0"
b110110 %
b110110 $
1&
#10800000
0&
#10900000
b110111 *"
b110111 /"
b11011000 -"
b110110 )"
b110110 0"
b110111 $
b110111 %
1&
#11000000
0&
#11100000
b111000 *"
b111000 /"
b11011100 -"
b110111 )"
b110111 0"
b111000 %
b111000 $
1&
#11200000
0&
#11300000
b111001 *"
b111001 /"
b11100000 -"
b111000 )"
b111000 0"
b111001 $
b111001 %
1&
#11400000
0&
#11500000
b111010 *"
b111010 /"
b11100100 -"
b111001 )"
b111001 0"
b111010 %
b111010 $
1&
#11600000
0&
#11700000
b111011 *"
b111011 /"
b11101000 -"
b111010 )"
b111010 0"
b111011 $
b111011 %
1&
#11800000
0&
#11900000
b111100 *"
b111100 /"
b11101100 -"
b111011 )"
b111011 0"
b111100 %
b111100 $
1&
#12000000
0&
#12100000
b111101 *"
b111101 /"
b11110000 -"
b111100 )"
b111100 0"
b111101 $
b111101 %
1&
#12200000
0&
#12300000
b111110 *"
b111110 /"
b11110100 -"
b111101 )"
b111101 0"
b111110 %
b111110 $
1&
#12400000
0&
#12500000
b111111 *"
b111111 /"
b11111000 -"
b111110 )"
b111110 0"
b111111 $
b111111 %
1&
#12600000
0&
#12700000
b1000000 *"
b1000000 /"
b11111100 -"
b111111 )"
b111111 0"
b1000000 %
b1000000 $
1&
#12800000
0&
#12900000
b1000001 *"
b1000001 /"
b100000000 -"
b1000000 )"
b1000000 0"
b1000001 $
b1000001 %
1&
#13000000
0&
#13100000
b1000010 *"
b1000010 /"
b100000100 -"
b1000001 )"
b1000001 0"
b1000010 %
b1000010 $
1&
#13200000
0&
#13300000
b1000011 *"
b1000011 /"
b100001000 -"
b1000010 )"
b1000010 0"
b1000011 $
b1000011 %
1&
#13400000
0&
#13500000
b1000100 *"
b1000100 /"
b100001100 -"
b1000011 )"
b1000011 0"
b1000100 %
b1000100 $
1&
#13600000
0&
#13700000
b1000101 *"
b1000101 /"
b100010000 -"
b1000100 )"
b1000100 0"
b1000101 $
b1000101 %
1&
#13800000
0&
#13900000
b1000110 *"
b1000110 /"
b100010100 -"
b1000101 )"
b1000101 0"
b1000110 %
b1000110 $
1&
#14000000
0&
#14100000
b1000111 *"
b1000111 /"
b100011000 -"
b1000110 )"
b1000110 0"
b1000111 $
b1000111 %
1&
#14200000
0&
#14300000
b1001000 *"
b1001000 /"
b100011100 -"
b1000111 )"
b1000111 0"
b1001000 %
b1001000 $
1&
#14400000
0&
#14500000
b1001001 *"
b1001001 /"
b100100000 -"
b1001000 )"
b1001000 0"
b1001001 $
b1001001 %
1&
#14600000
0&
#14700000
b1001010 *"
b1001010 /"
b100100100 -"
b1001001 )"
b1001001 0"
b1001010 %
b1001010 $
1&
#14800000
0&
#14900000
b1001011 *"
b1001011 /"
b100101000 -"
b1001010 )"
b1001010 0"
b1001011 $
b1001011 %
1&
#15000000
0&
#15100000
b1001100 *"
b1001100 /"
b100101100 -"
b1001011 )"
b1001011 0"
b1001100 %
b1001100 $
1&
#15200000
0&
#15300000
b1001101 *"
b1001101 /"
b100110000 -"
b1001100 )"
b1001100 0"
b1001101 $
b1001101 %
1&
#15400000
0&
#15500000
b1001110 *"
b1001110 /"
b100110100 -"
b1001101 )"
b1001101 0"
b1001110 %
b1001110 $
1&
#15600000
0&
#15700000
b1001111 *"
b1001111 /"
b100111000 -"
b1001110 )"
b1001110 0"
b1001111 $
b1001111 %
1&
#15800000
0&
#15900000
b1010000 *"
b1010000 /"
b100111100 -"
b1001111 )"
b1001111 0"
b1010000 %
b1010000 $
1&
#16000000
0&
#16100000
b1010001 *"
b1010001 /"
b101000000 -"
b1010000 )"
b1010000 0"
b1010001 $
b1010001 %
1&
#16200000
0&
#16300000
b1010010 *"
b1010010 /"
b101000100 -"
b1010001 )"
b1010001 0"
b1010010 %
b1010010 $
1&
#16400000
0&
#16500000
b1010011 *"
b1010011 /"
b101001000 -"
b1010010 )"
b1010010 0"
b1010011 $
b1010011 %
1&
#16600000
0&
#16700000
b1010100 *"
b1010100 /"
b101001100 -"
b1010011 )"
b1010011 0"
b1010100 %
b1010100 $
1&
#16800000
0&
#16900000
b1010101 *"
b1010101 /"
b101010000 -"
b1010100 )"
b1010100 0"
b1010101 $
b1010101 %
1&
#17000000
0&
#17100000
b1010110 *"
b1010110 /"
b101010100 -"
b1010101 )"
b1010101 0"
b1010110 %
b1010110 $
1&
#17200000
0&
#17300000
b1010111 *"
b1010111 /"
b101011000 -"
b1010110 )"
b1010110 0"
b1010111 $
b1010111 %
1&
#17400000
0&
#17500000
b1011000 *"
b1011000 /"
b101011100 -"
b1010111 )"
b1010111 0"
b1011000 %
b1011000 $
1&
#17600000
0&
#17700000
b1011001 *"
b1011001 /"
b101100000 -"
b1011000 )"
b1011000 0"
b1011001 $
b1011001 %
1&
#17800000
0&
#17900000
b1011010 *"
b1011010 /"
b101100100 -"
b1011001 )"
b1011001 0"
b1011010 %
b1011010 $
1&
#18000000
0&
#18100000
b1011011 *"
b1011011 /"
b101101000 -"
b1011010 )"
b1011010 0"
b1011011 $
b1011011 %
1&
#18200000
0&
#18300000
b1011100 *"
b1011100 /"
b101101100 -"
b1011011 )"
b1011011 0"
b1011100 %
b1011100 $
1&
#18400000
0&
#18500000
b1011101 *"
b1011101 /"
b101110000 -"
b1011100 )"
b1011100 0"
b1011101 $
b1011101 %
1&
#18600000
0&
#18700000
b1011110 *"
b1011110 /"
b101110100 -"
b1011101 )"
b1011101 0"
b1011110 %
b1011110 $
1&
#18800000
0&
#18900000
b1011111 *"
b1011111 /"
b101111000 -"
b1011110 )"
b1011110 0"
b1011111 $
b1011111 %
1&
#19000000
0&
#19100000
b1100000 *"
b1100000 /"
b101111100 -"
b1011111 )"
b1011111 0"
b1100000 %
b1100000 $
1&
#19200000
0&
#19300000
b1100001 *"
b1100001 /"
b110000000 -"
b1100000 )"
b1100000 0"
b1100001 $
b1100001 %
1&
#19400000
0&
#19500000
b1100010 *"
b1100010 /"
b110000100 -"
b1100001 )"
b1100001 0"
b1100010 %
b1100010 $
1&
#19600000
0&
#19700000
b1100011 *"
b1100011 /"
b110001000 -"
b1100010 )"
b1100010 0"
b1100011 $
b1100011 %
1&
#19800000
0&
#19900000
b1100100 *"
b1100100 /"
b110001100 -"
b1100011 )"
b1100011 0"
b1100100 %
b1100100 $
1&
#20000000
0&
#20100000
b1100101 *"
b1100101 /"
b110010000 -"
b1100100 )"
b1100100 0"
b1100101 $
b1100101 %
1&
#20200000
0&
#20300000
b1100110 *"
b1100110 /"
b110010100 -"
b1100101 )"
b1100101 0"
b1100110 %
b1100110 $
1&
#20400000
0&
#20500000
b1100111 *"
b1100111 /"
b110011000 -"
b1100110 )"
b1100110 0"
b1100111 $
b1100111 %
1&
#20600000
0&
#20700000
b1101000 *"
b1101000 /"
b110011100 -"
b1100111 )"
b1100111 0"
b1101000 %
b1101000 $
1&
#20800000
0&
#20900000
b1101001 *"
b1101001 /"
b110100000 -"
b1101000 )"
b1101000 0"
b1101001 $
b1101001 %
1&
#21000000
0&
#21100000
b1101010 *"
b1101010 /"
b110100100 -"
b1101001 )"
b1101001 0"
b1101010 %
b1101010 $
1&
#21200000
0&
#21300000
b1101011 *"
b1101011 /"
b110101000 -"
b1101010 )"
b1101010 0"
b1101011 $
b1101011 %
1&
#21400000
0&
#21500000
b1101100 *"
b1101100 /"
b110101100 -"
b1101011 )"
b1101011 0"
b1101100 %
b1101100 $
1&
#21600000
0&
#21700000
b1101101 *"
b1101101 /"
b110110000 -"
b1101100 )"
b1101100 0"
b1101101 $
b1101101 %
1&
#21800000
0&
#21900000
b1101110 *"
b1101110 /"
b110110100 -"
b1101101 )"
b1101101 0"
b1101110 %
b1101110 $
1&
#22000000
0&
#22100000
b1101111 *"
b1101111 /"
b110111000 -"
b1101110 )"
b1101110 0"
b1101111 $
b1101111 %
1&
