singleCycleCpu/user/sim/wave.vcd
$date
	Mon Dec 25 21:58:54 2023
$end
$version
	Icarus Verilog
$end
$timescale
	1ps
$end
$scope module testbench $end
$var parameter 32 ! ADDR_WIDTH $end
$var parameter 32 " DATA_WIDTH $end
$var parameter 32 # MAIN_FRE $end
$var reg 32 $ addr [31:0] $end
$var reg 32 % data [31:0] $end
$var reg 1 & sys_clk $end
$var reg 1 ' sys_rst $end
$scope module u_singleCycleCpu $end
$var wire 1 & clk $end
$var wire 1 ( rtype $end
$var wire 6 ) op [5:0] $end
$var wire 1 * jump $end
$var wire 6 + func [5:0] $end
$var wire 1 , branch $end
$var wire 1 - RegWr $end
$var wire 1 . RegDst $end
$var wire 1 / MemtoReg $end
$var wire 1 0 MemWr $end
$var wire 1 1 ExtOp $end
$var wire 1 2 ALUsrc $end
$var wire 3 3 ALUctr [2:0] $end
$scope module ctr $end
$var wire 1 4 sw $end
$var wire 1 ( rtype $end
$var wire 1 5 ori $end
$var wire 6 6 op [5:0] $end
$var wire 1 7 lw $end
$var wire 1 8 jump $end
$var wire 6 9 func [5:0] $end
$var wire 1 , branch $end
$var wire 1 : beq $end
$var wire 1 ; addiu $end
$var wire 1 < Rtype $end
$var wire 1 - RegWr $end
$var wire 1 . RegDst $end
$var wire 1 / MemtoReg $end
$var wire 1 0 MemWr $end
$var wire 1 * Jump $end
$var wire 1 1 ExtOp $end
$var wire 3 = ALUctr [2:0] $end
$var wire 1 2 ALUSrc $end
$var wire 3 > ALUOp1 [2:0] $end
$var wire 3 ? ALUOp0 [2:0] $end
$scope module u_aluCtr $end
$var wire 6 @ func [5:0] $end
$var reg 3 A ALUctr [2:0] $end
$upscope $end
$scope module u_insDecoder $end
$var wire 1 4 sw $end
$var wire 1 5 ori $end
$var wire 6 B op [5:0] $end
$var wire 1 7 lw $end
$var wire 1 8 jump $end
$var wire 1 : beq $end
$var wire 1 ; addiu $end
$var wire 1 < Rtype $end
$upscope $end
$scope module u_mainCtr $end
$var wire 1 2 ALUSrc $end
$var wire 1 1 ExtOp $end
$var wire 1 * Jump $end
$var wire 1 0 MemWr $end
$var wire 1 / MemtoReg $end
$var wire 1 . RegDst $end
$var wire 1 - RegWr $end
$var wire 1 < Rtype $end
$var wire 1 ; addiu $end
$var wire 1 : beq $end
$var wire 1 , branch $end
$var wire 1 8 jump $end
$var wire 1 7 lw $end
$var wire 1 5 ori $end
$var wire 1 ( rtype $end
$var wire 1 4 sw $end
$var wire 3 C ALUOp [2:0] $end
$upscope $end
$upscope $end
$scope module dp $end
$var wire 3 D ALUctr [2:0] $end
$var wire 1 2 ALUsrc $end
$var wire 1 1 ExtOp $end
$var wire 1 0 MemWr $end
$var wire 1 / MemtoReg $end
$var wire 1 . RegDst $end
$var wire 1 - RegWr $end
$var wire 1 E RegWr_real $end
$var wire 1 , branch $end
$var wire 1 & clk $end
$var wire 1 * jump $end
$var wire 1 F zero $end
$var wire 32 G result [31:0] $end
$var wire 1 H overflow $end
$var wire 6 I op [5:0] $end
$var wire 32 J memdata [31:0] $end
$var wire 32 K instruction [31:0] $end
$var wire 32 L imm32 [31:0] $end
$var wire 16 M imm16 [15:0] $end
$var wire 6 N func [5:0] $end
$var wire 32 O busW [31:0] $end
$var wire 32 P busB [31:0] $end
$var wire 32 Q busA [31:0] $end
$var wire 5 R Rw [4:0] $end
$var wire 5 S Rt [4:0] $end
$var wire 5 T Rs [4:0] $end
$var wire 5 U Rd [4:0] $end
$var wire 32 V B [31:0] $end
$scope module alu $end
$var wire 3 W ALUctr [2:0] $end
$var wire 32 X B [31:0] $end
$var wire 1 H Overflow $end
$var wire 1 Y mux2_op1 $end
$var wire 1 Z mux2_op2 $end
$var wire 32 [ mux3_op3 [31:0] $end
$var wire 32 \ mux3_op2 [31:0] $end
$var wire 1 ] less $end
$var wire 1 F Zero $end
$var wire 32 ^ SUBctr_ext [31:0] $end
$var wire 1 _ SUBctr $end
$var wire 1 ` SIGctr $end
$var wire 32 a Result [31:0] $end
$var wire 1 b OVctr $end
$var wire 2 c OPctr [1:0] $end
$var wire 32 d B_to_add [31:0] $end
$var wire 1 e Add_Sign $end
$var wire 32 f Add_Result [31:0] $end
$var wire 1 g Add_Overflow $end
$var wire 1 h Add_Carry $end
$var wire 32 i A [31:0] $end
$var parameter 32 j n $end
$scope module adder $end
$var wire 1 h Add_Carry $end
$var wire 1 g Add_Overflow $end
$var wire 1 F Zero $end
$var wire 1 k cout $end
$var wire 1 _ Cin $end
$var wire 32 l B [31:0] $end
$var wire 1 e Add_Sign $end
$var wire 32 m Add_Result [31:0] $end
$var wire 32 n A [31:0] $end
$var parameter 32 o n $end
$upscope $end
$scope module extend $end
$var wire 1 _ SUBctr $end
$var reg 32 p extend_out [31:0] $end
$upscope $end
$scope module gen $end
$var wire 3 q ALUctr [2:0] $end
$var parameter 32 r n $end
$var reg 2 s OPctr [1:0] $end
$var reg 1 b OVctr $end
$var reg 1 ` SIGctr $end
$var reg 1 _ SUBctr $end
$upscope $end
$scope module mux1 $end
$var wire 1 Y choice1 $end
$var wire 1 Z choice2 $end
$var wire 1 ` sel $end
$var reg 1 ] out $end
$upscope $end
$scope module mux2 $end
$var wire 1 ] sel $end
$var reg 32 t out [31:0] $end
$upscope $end
$scope module mux3 $end
$var wire 32 u choice1 [31:0] $end
$var wire 32 v choice3 [31:0] $end
$var wire 2 w sel [1:0] $end
$var wire 32 x choice2 [31:0] $end
$var parameter 32 y n $end
$var reg 32 z out [31:0] $end
$upscope $end
$scope module or_gate $end
$var wire 32 { operendB [31:0] $end
$var wire 32 | out [31:0] $end
$var wire 32 } operendA [31:0] $end
$var parameter 32 ~ n $end
$upscope $end
$scope module x $end
$var wire 32 !" operendA [31:0] $end
$var wire 32 "" operendB [31:0] $end
$var parameter 32 #" n $end
$var reg 32 $" out [31:0] $end
$upscope $end
$upscope $end
$scope module extendByExtop $end
$var wire 1 1 ExtOp $end
$var wire 16 %" imm16 [15:0] $end
$var wire 32 &" imm32 [31:0] $end
$upscope $end
$scope module ifu $end
$var wire 1 , branch $end
$var wire 1 & clk $end
$var wire 1 * jump $end
$var wire 1 F zero $end
$var wire 32 '" instruction [31:0] $end
$var wire 30 (" extend_imme [31:2] $end
$var wire 30 )" curAddr [31:2] $end
$var reg 30 *" nextAddr [31:2] $end
$scope module extend16to30 $end
$var wire 16 +" in [15:0] $end
$var wire 30 ," out [29:0] $end
$upscope $end
$scope module insMem $end
$var wire 32 -" InsAddr [31:0] $end
$var reg 32 ." InsData [31:0] $end
$upscope $end
$scope module pc $end
$var wire 1 & clk $end
$var wire 30 /" nextAddr [29:0] $end
$var reg 30 0" curAddr [29:0] $end
$upscope $end
$upscope $end
$scope module mem $end
$var wire 32 1" Address [31:0] $end
$var wire 1 0 WE $end
$var wire 1 & clk $end
$var wire 32 2" data [31:0] $end
$var parameter 32 3" n $end
$var reg 32 4" dataout [31:0] $end
$upscope $end
$scope module muxReg $end
$var wire 5 5" Rd [4:0] $end
$var wire 1 . RegDst $end
$var wire 5 6" Rt [4:0] $end
$var wire 5 7" Rw [4:0] $end
$upscope $end
$scope module regs $end
$var wire 1 & Clock $end
$var wire 5 8" Ra [4:0] $end
$var wire 5 9" Rb [4:0] $end
$var wire 1 E RegWr $end
$var wire 5 :" Rw [4:0] $end
$var wire 32 ;" busW [31:0] $end
$var parameter 32 <" n $end
$var reg 32 =" busA [31:0] $end
$var reg 32 >" busB [31:0] $end
$upscope $end
$upscope $end
$upscope $end
$upscope $end
$enddefinitions $end
$comment Show the parameter values. $end
$dumpall
b100000 <"
b100000 3"
b100000 #"
b100000 ~
b100000 y
b11 r
b100000 o
b100000 j
b1100100 #
b100000 "
b100000 !
$end
#0
$dumpvars
bx >"
bx ="
bx ;"
bx :"
bx 9"
bx 8"
bx 7"
bx 6"
bx 5"
bx 4"
bx 2"
bx 1"
bx 0"
b0 /"
bx ."
bx00 -"
bx ,"
bx +"
b0 *"
bx )"
bx ("
bx '"
bx &"
bx %"
bx $"
bx ""
bx !"
bx }
bx |
bx {
bx z
bx x
bx w
bx v
bx u
bx t
bx s
bx q
bx p
bx n
bx m
bx l
xk
bx i
xh
xg
bx f
xe
bx d
bx c
xb
bx a
x`
x_
bx ^
x]
bx \
bx [
xZ
xY
bx X
bx W
bx V
bx U
bx T
bx S
bx R
bx Q
bx P
bx O
bx N
bx M
bx L
bx K
bx J
bx I
xH
bx G
xF
xE
bx D
bx C
bx B
bx A
bx @
bx ?
bx >
bx =
x<
x;
x:
bx 9
x8
x7
bx 6
x5
x4
bx 3
x2
x1
x0
x/
x.
x-
x,
bx +
x*
bx )
x(
1'
0&
b0 %
b0 $
$end
#50000
0'
#100000
0Z
b11111111111111111111111111111111 [
b11111111111111111111111111111111 t
b11111111111111111111111111111111 v
0g
1]
b1 O
b1 ;"
1Y
b1 J
b1 4"
1h
0e
1F
b0 G
b0 a
b0 z
b0 1"
b0 \
b0 x
b0 |
b0 f
b0 m
b0 u
0k
b0 Q
b0 i
b0 n
b0 }
b0 ="
1E
b0 d
b0 l
b0 $"
0H
b0 ^
b0 p
b0 ""
b0 c
b0 s
b0 w
0`
0b
0_
b0 V
b0 X
b0 {
b0 !"
12
11
1-
b0 3
b0 =
b0 D
b0 W
b0 q
b100 R
b100 7"
b100 :"
b0 L
b0 &"
0*
08
0,
0:
00
04
1/
17
0;
05
0(
0.
b0 ?
b0 C
0<
b100011 )
b100011 6
b100011 B
b100011 I
b100 S
b100 6"
b100 9"
b0 T
b0 8"
b0 U
b0 5"
b0 ("
b0 ,"
b0 +"
b0 M
b0 %"
b0 +
b0 9
b0 @
b0 N
b10001100000001000000000000000000 K
b10001100000001000000000000000000 '"
b10001100000001000000000000000000 ."
b0 -"
b0 )"
b0 0"
b1 $
b1 %
1&
#110000
b1 *"
b1 /"
#200000
b1 P
b1 2"
b1 >"
0&
#300000
bx P
bx 2"
bx >"
b101 R
b101 7"
b101 :"
b101 S
b101 6"
b101 9"
b10001100000001010000000000000000 K
b10001100000001010000000000000000 '"
b10001100000001010000000000000000 ."
b10 %
b10 $
b100 -"
b1 )"
b1 0"
1&
#310000
b10 *"
b10 /"
#400000
b1 P
b1 2"
b1 >"
0&
#500000
b1 Q
b1 i
b1 n
b1 }
b1 ="
b10000000000000000 J
b10000000000000000 4"
0F
b0 [
b0 t
b0 v
b10 G
b10 a
b10 z
b10 1"
b10 f
b10 m
b10 u
0]
b1 \
b1 x
b1 |
b1 d
b1 l
b1 $"
1E
02
01
1`
1b
b1 V
b1 X
b1 {
b1 !"
1-
b10 O
b10 ;"
b110 R
b110 7"
b110 :"
b1 3
b1 =
b1 D
b1 W
b1 q
b11000000100000 L
b11000000100000 &"
b1 >
b1 A
0/
07
1(
1.
b1 ?
b1 C
1<
b0 )
b0 6
b0 B
b0 I
b100 T
b100 8"
b110 U
b110 5"
b11000000100000 ("
b11000000100000 ,"
b11000000100000 +"
b11000000100000 M
b11000000100000 %"
b100000 +
b100000 9
b100000 @
b100000 N
b100001010011000000100000 K
b100001010011000000100000 '"
b100001010011000000100000 ."
b1000 -"
b10 )"
b10 0"
b11 $
b11 %
1&
#510000
b11 *"
b11 /"
#600000
0&
#700000
b10 P
b10 2"
b10 >"
b0 Q
b0 i
b0 n
b0 }
b0 ="
b1 J
b1 4"
b100 O
b100 ;"
b100 G
b100 a
b100 z
b100 1"
b100 f
b100 m
b100 u
0E
b11111111111111111111111111111111 [
b11111111111111111111111111111111 t
b11111111111111111111111111111111 v
b100 \
b100 x
b100 |
b100 d
b100 l
b100 $"
0-
1]
b100 V
b100 X
b100 {
b100 !"
0`
0b
12
11
b0 3
b0 =
b0 D
b0 W
b0 q
b100 L
b100 &"
10
14
0(
0.
b0 ?
b0 C
0<
b101011 )
b101011 6
b101011 B
b101011 I
b110 S
b110 6"
b110 9"
b0 T
b0 8"
b0 U
b0 5"
b100 ("
b100 ,"
b100 +"
b100 M
b100 %"
b100 +
b100 9
b100 @
b100 N
b10101100000001100000000000000100 K
b10101100000001100000000000000100 '"
b10101100000001100000000000000100 ."
b100 %
b100 $
b1100 -"
b11 )"
b11 0"
1&
#710000
b100 *"
b100 /"
#800000
b10 J
b10 4"
0&
#900000
bx P
bx 2"
bx >"
1E
1-
b10 O
b10 ;"
b111 R
b111 7"
b111 :"
00
04
1/
17
b100011 )
b100011 6
b100011 B
b100011 I
b111 S
b111 6"
b111 9"
b10001100000001110000000000000100 K
b10001100000001110000000000000100 '"
b10001100000001110000000000000100 ."
b10000 -"
b100 )"
b100 0"
b101 $
b101 %
1&
#910000
b101 *"
b101 /"
#1000000
b10 P
b10 2"
b10 >"
0&
#1100000
b1 Q
b1 i
b1 n
b1 }
b1 ="
1Z
0H
0g
1e
b1xxxxxxxx J
b1xxxxxxxx 4"
b11111111111111111111111111111111 [
b11111111111111111111111111111111 t
b11111111111111111111111111111111 v
0h
b11111111111111111111111111111111 G
b11111111111111111111111111111111 a
b11111111111111111111111111111111 z
b11111111111111111111111111111111 1"
1]
b11111111111111111111111111111111 f
b11111111111111111111111111111111 m
b11111111111111111111111111111111 u
1Y
b11111111111111111111111111111111 ^
b11111111111111111111111111111111 p
b11111111111111111111111111111111 ""
b11 \
b11 x
b11 |
b11111111111111111111111111111101 d
b11111111111111111111111111111101 l
b11111111111111111111111111111101 $"
1E
02
01
1`
1b
1_
b10 V
b10 X
b10 {
b10 !"
1-
b11111111111111111111111111111111 O
b11111111111111111111111111111111 ;"
b1000 R
b1000 7"
b1000 :"
b101 3
b101 =
b101 D
b101 W
b101 q
b100000000100010 L
b100000000100010 &"
b101 >
b101 A
0/
07
1(
1.
b1 ?
b1 C
1<
b0 )
b0 6
b0 B
b0 I
b100 T
b100 8"
b1000 U
b1000 5"
b100000000100010 ("
b100000000100010 ,"
b100000000100010 +"
b100000000100010 M
b100000000100010 %"
b100010 +
b100010 9
b100010 @
b100010 N
b100001110100000000100010 K
b100001110100000000100010 '"
b100001110100000000100010 ."
b110 %
b110 $
b10100 -"
b101 )"
b101 0"
1&
#1110000
b110 *"
b110 /"
#1200000
0&
#1300000
b11111111111111111111111111111111 P
b11111111111111111111111111111111 2"
b11111111111111111111111111111111 >"
b0 Q
b0 i
b0 n
b0 }
b0 ="
0Z
0g
0e
b1 J
b1 4"
b1000 O
b1000 ;"
0E
b11111111111111111111111111111111 [
b11111111111111111111111111111111 t
b11111111111111111111111111111111 v
b1000 G
b1000 a
b1000 z
b1000 1"
1h
b1000 \
b1000 x
b1000 |
b1000 d
b1000 l
b1000 $"
0-
1]
b1000 f
b1000 m
b1000 u
1Y
b0 ^
b0 p
b0 ""
b1000 V
b1000 X
b1000 {
b1000 !"
0`
0b
0_
12
11
b0 3
b0 =
b0 D
b0 W
b0 q
b1000 L
b1000 &"
10
14
0(
0.
b0 ?
b0 C
0<
b101011 )
b101011 6
b101011 B
b101011 I
b1000 S
b1000 6"
b1000 9"
b0 T
b0 8"
b0 U
b0 5"
b1000 ("
b1000 ,"
b1000 +"
b1000 M
b1000 %"
b1000 +
b1000 9
b1000 @
b1000 N
b10101100000010000000000000001000 K
b10101100000010000000000000001000 '"
b10101100000010000000000000001000 ."
b11000 -"
b110 )"
b110 0"
b111 $
b111 %
1&
#1310000
b111 *"
b111 /"
#1400000
b11111111111111111111111111111111 J
b11111111111111111111111111111111 4"
0&
#1500000
b0 P
b0 2"
b0 >"
0Z
bx J
bx 4"
b101000000101 O
b101000000101 ;"
0g
0e
b101000000101 G
b101000000101 a
b101000000101 z
b101000000101 1"
b101000000101 f
b101000000101 m
b101000000101 u
1E
b101000000101 \
b101000000101 x
b101000000101 |
b101000000101 d
b101000000101 l
b101000000101 $"
1-
b101000000101 V
b101000000101 X
b101000000101 {
b101000000101 !"
12
b1 R
b1 7"
b1 :"
b101000000101 L
b101000000101 &"
00
04
1;
b1001 )
b1001 6
b1001 B
b1001 I
b1 S
b1 6"
b1 9"
b1 U
b1 5"
b101000000101 ("
b101000000101 ,"
b101000000101 +"
b101000000101 M
b101000000101 %"
b101 +
b101 9
b101 @
b101 N
b100100000000010000101000000101 K
b100100000000010000101000000101 '"
b100100000000010000101000000101 ."
b1000 %
b1000 $
b11100 -"
b111 )"
b111 0"
1&
#1510000
b1000 *"
b1000 /"
#1600000
b101000000101 P
b101000000101 2"
b101000000101 >"
0&
#1700000
b0 P
b0 2"
b0 >"
1Z
0g
1e
b11111111111111111111111110101000 O
b11111111111111111111111110101000 ;"
b11111111111111111111111110101000 G
b11111111111111111111111110101000 a
b11111111111111111111111110101000 z
b11111111111111111111111110101000 1"
b11111111111111111111111110101000 f
b11111111111111111111111110101000 m
b11111111111111111111111110101000 u
b11111111111111111111111110101000 \
b11111111111111111111111110101000 x
b11111111111111111111111110101000 |
b11111111111111111111111110101000 d
b11111111111111111111111110101000 l
b11111111111111111111111110101000 $"
b11111111111111111111111110101000 V
b11111111111111111111111110101000 X
b11111111111111111111111110101000 {
b11111111111111111111111110101000 !"
b10 R
b10 7"
b10 :"
b11111111111111111111111110101000 L
b11111111111111111111111110101000 &"
b10 S
b10 6"
b10 9"
b11111 U
b11111 5"
b111111111111111111111110101000 ("
b111111111111111111111110101000 ,"
b1111111110101000 +"
b1111111110101000 M
b1111111110101000 %"
b101000 +
b101000 9
b101000 @
b101000 N
b100100000000101111111110101000 K
b100100000000101111111110101000 '"
b100100000000101111111110101000 ."
b100000 -"
b1000 )"
b1000 0"
b1001 $
b1001 %
1&
#1710000
b1001 *"
b1001 /"
#1800000
b11111111111111111111111110101000 P
b11111111111111111111111110101000 2"
b11111111111111111111111110101000 >"
0&
#1900000
b101000000101 P
b101000000101 2"
b101000000101 >"
b101000000101 Q
b101000000101 i
b101000000101 n
b101000000101 }
b101000000101 ="
0Z
0g
0e
b111110010101 O
b111110010101 ;"
b111110010101 f
b111110010101 m
b111110010101 u
b111110010101 G
b111110010101 a
b111110010101 z
b111110010101 1"
b111110010101 \
b111110010101 x
b111110010101 |
b10110010000 d
b10110010000 l
b10110010000 $"
01
b1 c
b1 s
b1 w
b10110010000 V
b10110010000 X
b10110010000 {
b10110010000 !"
b10 3
b10 =
b10 D
b10 W
b10 q
b1 R
b1 7"
b1 :"
b10110010000 L
b10110010000 &"
0;
b10 ?
b10 C
15
b1101 )
b1101 6
b1101 B
b1101 I
b1 S
b1 6"
b1 9"
b1 T
b1 8"
b0 U
b0 5"
b10110010000 ("
b10110010000 ,"
b10110010000 +"
b10110010000 M
b10110010000 %"
b10000 +
b10000 9
b10000 @
b10000 N
b110100001000010000010110010000 K
b110100001000010000010110010000 '"
b110100001000010000010110010000 ."
b1010 %
b1010 $
b100100 -"
b1001 )"
b1001 0"
1&
#1910000
b1010 *"
b1010 /"
#2000000
b1010100100101 f
b1010100100101 m
b1010100100101 u
b111110010101 P
b111110010101 2"
b111110010101 >"
b111110010101 Q
b111110010101 i
b111110010101 n
b111110010101 }
b111110010101 ="
0&
#2100000
b0 [
b0 t
b0 v
0]
0Y
0h
1k
b11111111111111111111111110101000 P
b11111111111111111111111110101000 2"
b11111111111111111111111110101000 >"
b11111111111111111111111110101000 Q
b11111111111111111111111110101000 i
b11111111111111111111111110101000 n
b11111111111111111111111110101000 }
b11111111111111111111111110101000 ="
b11111111111111111111111111101100 O
b11111111111111111111111111101100 ;"
b11111111111111111111111111101100 G
b11111111111111111111111111101100 a
b11111111111111111111111111101100 z
b11111111111111111111111111101100 1"
b1000111100010100 f
b1000111100010100 m
b1000111100010100 u
b11111111111111111111111111101100 \
b11111111111111111111111111101100 x
b11111111111111111111111111101100 |
b1000111101101100 d
b1000111101101100 l
b1000111101101100 $"
b1000111101101100 V
b1000111101101100 X
b1000111101101100 {
b1000111101101100 !"
b10 R
b10 7"
b10 :"
b1000111101101100 L
b1000111101101100 &"
b10 S
b10 6"
b10 9"
b10 T
b10 8"
b10001 U
b10001 5"
b111111111111111000111101101100 ("
b111111111111111000111101101100 ,"
b1000111101101100 +"
b1000111101101100 M
b1000111101101100 %"
b101100 +
b101100 9
b101100 @
b101100 N
b110100010000101000111101101100 K
b110100010000101000111101101100 '"
b110100010000101000111101101100 ."
b101000 -"
b1010 )"
b1010 0"
b1011 $
b1011 %
1&
#2110000
b1011 *"
b1011 /"
#2200000
b1000111101011000 f
b1000111101011000 m
b1000111101011000 u
b11111111111111111111111111101100 P
b11111111111111111111111111101100 2"
b11111111111111111111111111101100 >"
b11111111111111111111111111101100 Q
b11111111111111111111111111101100 i
b11111111111111111111111111101100 n
b11111111111111111111111111101100 }
b11111111111111111111111111101100 ="
0&
#2300000
0k
b111110010101 Q
b111110010101 i
b111110010101 n
b111110010101 }
b111110010101 ="
b0 [
b0 t
b0 v
0]
0Z
0F
0g
0e
b1 J
b1 4"
b0 O
b0 ;"
0h
02
b0 G
b0 a
b0 z
b0 1"
b111110101001 f
b111110101001 m
b111110101001 u
1Y
b11111111111111111111111111111111 ^
b11111111111111111111111111111111 p
b11111111111111111111111111111111 ""
b11111111111111111111111111111101 \
b11111111111111111111111111111101 x
b11111111111111111111111111111101 |
b10011 d
b10011 l
b10011 $"
b10 c
b10 s
b10 w
1`
1_
b11111111111111111111111111101100 V
b11111111111111111111111111101100 X
b11111111111111111111111111101100 {
b11111111111111111111111111101100 !"
b11 R
b11 7"
b11 :"
b111 3
b111 =
b111 D
b111 W
b111 q
b1100000101010 L
b1100000101010 &"
b111 >
b111 A
05
1(
1.
b1 ?
b1 C
1<
b0 )
b0 6
b0 B
b0 I
b1 T
b1 8"
b11 U
b11 5"
b1100000101010 ("
b1100000101010 ,"
b1100000101010 +"
b1100000101010 M
b1100000101010 %"
b101010 +
b101010 9
b101010 @
b101010 N
b1000100001100000101010 K
b1000100001100000101010 '"
b1000100001100000101010 ."
b1100 %
b1100 $
b101100 -"
b1011 )"
b1011 0"
1&
#2310000
b1100 *"
b1100 /"
#2400000
0&
#2500000
b1xxxxxxxx J
b1xxxxxxxx 4"
b11111111111111111111111111111111 O
b11111111111111111111111111111111 ;"
b11111111111111111111111111111111 G
b11111111111111111111111111111111 a
b11111111111111111111111111111111 z
b11111111111111111111111111111111 1"
b11111111111111111111111111111111 [
b11111111111111111111111111111111 t
b11111111111111111111111111111111 v
1]
0`
b110 3
b110 =
b110 D
b110 W
b110 q
b1100000101011 L
b1100000101011 &"
b110 >
b110 A
b1100000101011 ("
b1100000101011 ,"
b1100000101011 +"
b1100000101011 M
b1100000101011 %"
b101011 +
b101011 9
b101011 @
b101011 N
b1000100001100000101011 K
b1000100001100000101011 '"
b1000100001100000101011 ."
b110000 -"
b1100 )"
b1100 0"
b1101 $
b1101 %
1&
#2510000
b1101 *"
b1101 /"
#2600000
0&
#2700000
b1 P
b1 2"
b1 >"
b0 Q
b0 i
b0 n
b0 }
b0 ="
b11111111111111111111111111111111 [
b11111111111111111111111111111111 t
b11111111111111111111111111111111 v
b1100 \
b1100 x
b1100 |
b10000000000000000000000000000000 J
b10000000000000000000000000000000 4"
1h
1]
b1100 d
b1100 l
b1100 $"
b1100 V
b1100 X
b1100 {
b1100 !"
b1100 G
b1100 a
b1100 z
b1100 1"
b1100 f
b1100 m
b1100 u
1Y
b0 ^
b0 p
b0 ""
12
11
b0 c
b0 s
b0 w
0_
b10000000000000000000000000000000 O
b10000000000000000000000000000000 ;"
b0 3
b0 =
b0 D
b0 W
b0 q
b100 R
b100 7"
b100 :"
b1100 L
b1100 &"
1/
17
0(
0.
b0 ?
b0 C
0<
b100011 )
b100011 6
b100011 B
b100011 I
b100 S
b100 6"
b100 9"
b0 T
b0 8"
b0 U
b0 5"
b1100 ("
b1100 ,"
b1100 +"
b1100 M
b1100 %"
b1100 +
b1100 9
b1100 @
b1100 N
b10001100000001000000000000001100 K
b10001100000001000000000000001100 '"
b10001100000001000000000000001100 ."
b1110 %
b1110 $
b110100 -"
b1101 )"
b1101 0"
1&
#2710000
b1110 *"
b1110 /"
#2800000
b10000000000000000000000000000000 P
b10000000000000000000000000000000 2"
b10000000000000000000000000000000 >"
0&
#2900000
0F
1k
b1 P
b1 2"
b1 >"
b10000000000000000000000000000000 Q
b10000000000000000000000000000000 i
b10000000000000000000000000000000 n
b10000000000000000000000000000000 }
b10000000000000000000000000000000 ="
1H
1g
1Z
0e
bx J
bx 4"
b11111111111111111111111111111111 [
b11111111111111111111111111111111 t
b11111111111111111111111111111111 v
1h
b1111111111111111111111111111111 G
b1111111111111111111111111111111 a
b1111111111111111111111111111111 z
b1111111111111111111111111111111 1"
1]
b1111111111111111111111111111111 f
b1111111111111111111111111111111 m
b1111111111111111111111111111111 u
0Y
b11111111111111111111111111111111 ^
b11111111111111111111111111111111 p
b11111111111111111111111111111111 ""
b10000000000000000000000000000001 \
b10000000000000000000000000000001 x
b10000000000000000000000000000001 |
b11111111111111111111111111111110 d
b11111111111111111111111111111110 l
b11111111111111111111111111111110 $"
0E
02
01
1`
1b
1_
b1 V
b1 X
b1 {
b1 !"
1-
b1111111111111111111111111111111 O
b1111111111111111111111111111111 ;"
b101 3
b101 =
b101 D
b101 W
b101 q
b110 R
b110 7"
b110 :"
b11000000100010 L
b11000000100010 &"
b101 >
b101 A
0/
07
1(
1.
b1 ?
b1 C
1<
b0 )
b0 6
b0 B
b0 I
b101 S
b101 6"
b101 9"
b100 T
b100 8"
b110 U
b110 5"
b11000000100010 ("
b11000000100010 ,"
b11000000100010 +"
b11000000100010 M
b11000000100010 %"
b100010 +
b100010 9
b100010 @
b100010 N
b100001010011000000100010 K
b100001010011000000100010 '"
b100001010011000000100010 ."
b111000 -"
b1110 )"
b1110 0"
b1111 $
b1111 %
1&
#2910000
b1111 *"
b1111 /"
#3000000
0&
#3100000
0g
1Y
1Z
b1xxxxxxxx J
b1xxxxxxxx 4"
b11111111111111111111111111111111 O
b11111111111111111111111111111111 ;"
0h
1e
b11111111111111111111111111111111 G
b11111111111111111111111111111111 a
b11111111111111111111111111111111 z
b11111111111111111111111111111111 1"
b1 \
b1 x
b1 |
b11111111111111111111111111111111 f
b11111111111111111111111111111111 m
b11111111111111111111111111111111 u
0k
b0 Q
b0 i
b0 n
b0 }
b0 ="
b11111111111111111111111111111111 [
b11111111111111111111111111111111 t
b11111111111111111111111111111111 v
1E
1]
0H
0`
0b
b100 3
b100 =
b100 D
b100 W
b100 q
b11000000100011 L
b11000000100011 &"
b100 >
b100 A
b0 T
b0 8"
b11000000100011 ("
b11000000100011 ,"
b11000000100011 +"
b11000000100011 M
b11000000100011 %"
b100011 +
b100011 9
b100011 @
b100011 N
b1010011000000100011 K
b1010011000000100011 '"
b1010011000000100011 ."
b10000 %
b10000 $
b111100 -"
b1111 )"
b1111 0"
1&
#3110000
b10000 *"
b10000 /"
#3200000
0&
#3300000
0Z
b0 [
b0 t
b0 v
0]
0g
0e
1F
0Y
b1 J
b1 4"
b0 O
b0 ;"
1h
b0 d
b0 l
b0 $"
b0 G
b0 a
b0 z
b0 1"
b11111111111111111111111111111111 V
b11111111111111111111111111111111 X
b11111111111111111111111111111111 {
b11111111111111111111111111111111 !"
b11111111111111111111111111111111 \
b11111111111111111111111111111111 x
b11111111111111111111111111111111 |
b0 f
b0 m
b0 u
1k
b11111111111111111111111111111111 P
b11111111111111111111111111111111 2"
b11111111111111111111111111111111 >"
b11111111111111111111111111111111 Q
b11111111111111111111111111111111 i
b11111111111111111111111111111111 n
b11111111111111111111111111111111 }
b11111111111111111111111111111111 ="
0E
0-
b10 L
b10 &"
1,
1:
0(
0.
b100 ?
b100 C
0<
b100 )
b100 6
b100 B
b100 I
b110 S
b110 6"
b110 9"
b11 T
b11 8"
b0 U
b0 5"
b10 ("
b10 ,"
b10 +"
b10 M
b10 %"
b10 +
b10 9
b10 @
b10 N
b10000011001100000000000000010 K
b10000011001100000000000000010 '"
b10000011001100000000000000010 ."
b1000000 -"
b10000 )"
b10000 0"
b10001 $
b10001 %
1&
#3310000
b10011 *"
b10011 /"
#3400000
0&
#3500000
b0 \
b0 x
b0 |
bx P
bx 2"
bx >"
b0 Q
b0 i
b0 n
b0 }
b0 ="
0g
0Z
b1 J
b1 4"
b11111111111111111111111111111111 [
b11111111111111111111111111111111 t
b11111111111111111111111111111111 v
0e
1F
b0 G
b0 a
b0 z
b0 1"
1h
1]
b0 f
b0 m
b0 u
0k
1Y
b0 ^
b0 p
b0 ""
b0 V
b0 X
b0 {
b0 !"
0_
1E
12
11
b0 3
b0 =
b0 D
b0 W
b0 q
1-
b1 O
b1 ;"
b1100 R
b1100 7"
b1100 :"
b0 L
b0 &"
0,
b0 ?
b0 C
0:
1/
17
b100011 )
b100011 6
b100011 B
b100011 I
b1100 S
b1100 6"
b1100 9"
b0 T
b0 8"
b0 ("
b0 ,"
b0 +"
b0 M
b0 %"
b0 +
b0 9
b0 @
b0 N
b10001100000011000000000000000000 K
b10001100000011000000000000000000 '"
b10001100000011000000000000000000 ."
b10010 %
b10010 $
b1001100 -"
b10011 )"
b10011 0"
1&
#3510000
b10100 *"
b10100 /"
#3600000
b1 P
b1 2"
b1 >"
0&
#3700000
b0 P
b0 2"
b0 >"
b1 J
b1 4"
1F
b0 G
b0 a
b0 z
b0 1"
b0 f
b0 m
b0 u
b0 \
b0 x
b0 |
b0 d
b0 l
b0 $"
0E
02
01
b0 V
b0 X
b0 {
b0 !"
0-
b0 O
b0 ;"
b0 R
b0 7"
b0 :"
b10111 L
b10111 &"
1*
18
0/
07
b10 )
b10 6
b10 B
b10 I
b0 S
b0 6"
b0 9"
b10111 ("
b10111 ,"
b10111 +"
b10111 M
b10111 %"
b10111 +
b10111 9
b10111 @
b10111 N
b1000000000000000000000010111 K
b1000000000000000000000010111 '"
b1000000000000000000000010111 ."
b1010000 -"
b10100 )"
b10100 0"
b10011 $
b10011 %
1&
