singleCycleCpu/user/sim/wave.vcd
$date
	Tue Dec 26 10:00:53 2023
$end
$version
	Icarus Verilog
$end
$timescale
	1ps
$end
$scope module testbench $end
$var parameter 32 ! ADDR_WIDTH $end
$var parameter 32 " DATA_WIDTH $end
$var parameter 32 # MAIN_FRE $end
$var reg 32 $ addr [31:0] $end
$var reg 32 % data [31:0] $end
$var reg 1 & sys_clk $end
$var reg 1 ' sys_rst $end
$scope module u_singleCycleCpu $end
$var wire 1 & clk $end
$var wire 1 ( rtype $end
$var wire 6 ) op [5:0] $end
$var wire 1 * jump $end
$var wire 6 + func [5:0] $end
$var wire 1 , branch $end
$var wire 1 - RegWr $end
$var wire 1 . RegDst $end
$var wire 1 / MemtoReg $end
$var wire 1 0 MemWr $end
$var wire 1 1 ExtOp $end
$var wire 1 2 ALUsrc $end
$var wire 3 3 ALUctr [2:0] $end
$scope module ctr $end
$var wire 1 4 sw $end
$var wire 1 ( rtype $end
$var wire 1 5 ori $end
$var wire 6 6 op [5:0] $end
$var wire 1 7 lw $end
$var wire 1 8 jump $end
$var wire 6 9 func [5:0] $end
$var wire 1 , branch $end
$var wire 1 : beq $end
$var wire 1 ; addiu $end
$var wire 1 < Rtype $end
$var wire 1 - RegWr $end
$var wire 1 . RegDst $end
$var wire 1 / MemtoReg $end
$var wire 1 0 MemWr $end
$var wire 1 * Jump $end
$var wire 1 1 ExtOp $end
$var wire 3 = ALUctr [2:0] $end
$var wire 1 2 ALUSrc $end
$var wire 3 > ALUOp1 [2:0] $end
$var wire 3 ? ALUOp0 [2:0] $end
$scope module u_aluCtr $end
$var wire 6 @ func [5:0] $end
$var reg 3 A ALUctr [2:0] $end
$upscope $end
$scope module u_insDecoder $end
$var wire 1 4 sw $end
$var wire 1 5 ori $end
$var wire 6 B op [5:0] $end
$var wire 1 7 lw $end
$var wire 1 8 jump $end
$var wire 1 : beq $end
$var wire 1 ; addiu $end
$var wire 1 < Rtype $end
$upscope $end
$scope module u_mainCtr $end
$var wire 1 2 ALUSrc $end
$var wire 1 1 ExtOp $end
$var wire 1 * Jump $end
$var wire 1 0 MemWr $end
$var wire 1 / MemtoReg $end
$var wire 1 . RegDst $end
$var wire 1 - RegWr $end
$var wire 1 < Rtype $end
$var wire 1 ; addiu $end
$var wire 1 : beq $end
$var wire 1 , branch $end
$var wire 1 8 jump $end
$var wire 1 7 lw $end
$var wire 1 5 ori $end
$var wire 1 ( rtype $end
$var wire 1 4 sw $end
$var wire 3 C ALUOp [2:0] $end
$upscope $end
$upscope $end
$scope module dp $end
$var wire 3 D ALUctr [2:0] $end
$var wire 1 2 ALUsrc $end
$var wire 1 1 ExtOp $end
$var wire 1 0 MemWr $end
$var wire 1 / MemtoReg $end
$var wire 1 . RegDst $end
$var wire 1 - RegWr $end
$var wire 1 E RegWr_real $end
$var wire 1 , branch $end
$var wire 1 & clk $end
$var wire 1 * jump $end
$var wire 1 F zero $end
$var wire 32 G result [31:0] $end
$var wire 1 H overflow $end
$var wire 6 I op [5:0] $end
$var wire 32 J memdata [31:0] $end
$var wire 32 K instruction [31:0] $end
$var wire 32 L imm32 [31:0] $end
$var wire 16 M imm16 [15:0] $end
$var wire 6 N func [5:0] $end
$var wire 32 O busW [31:0] $end
$var wire 32 P busB [31:0] $end
$var wire 32 Q busA [31:0] $end
$var wire 5 R Rw [4:0] $end
$var wire 5 S Rt [4:0] $end
$var wire 5 T Rs [4:0] $end
$var wire 5 U Rd [4:0] $end
$var wire 32 V B [31:0] $end
$scope module alu $end
$var wire 3 W ALUctr [2:0] $end
$var wire 32 X B [31:0] $end
$var wire 1 H Overflow $end
$var wire 1 Y mux2_op1 $end
$var wire 1 Z mux2_op2 $end
$var wire 32 [ mux3_op3 [31:0] $end
$var wire 32 \ mux3_op2 [31:0] $end
$var wire 1 ] less $end
$var wire 1 F Zero $end
$var wire 32 ^ SUBctr_ext [31:0] $end
$var wire 1 _ SUBctr $end
$var wire 1 ` SIGctr $end
$var wire 32 a Result [31:0] $end
$var wire 1 b OVctr $end
$var wire 2 c OPctr [1:0] $end
$var wire 32 d B_to_add [31:0] $end
$var wire 1 e Add_Sign $end
$var wire 32 f Add_Result [31:0] $end
$var wire 1 g Add_Overflow $end
$var wire 1 h Add_Carry $end
$var wire 32 i A [31:0] $end
$var parameter 32 j n $end
$scope module adder $end
$var wire 1 h Add_Carry $end
$var wire 1 g Add_Overflow $end
$var wire 1 F Zero $end
$var wire 1 k cout $end
$var wire 1 _ Cin $end
$var wire 32 l B [31:0] $end
$var wire 1 e Add_Sign $end
$var wire 32 m Add_Result [31:0] $end
$var wire 32 n A [31:0] $end
$var parameter 32 o n $end
$upscope $end
$scope module extend $end
$var wire 1 _ SUBctr $end
$var reg 32 p extend_out [31:0] $end
$upscope $end
$scope module gen $end
$var wire 3 q ALUctr [2:0] $end
$var parameter 32 r n $end
$var reg 2 s OPctr [1:0] $end
$var reg 1 b OVctr $end
$var reg 1 ` SIGctr $end
$var reg 1 _ SUBctr $end
$upscope $end
$scope module mux1 $end
$var wire 1 Y choice1 $end
$var wire 1 Z choice2 $end
$var wire 1 ` sel $end
$var reg 1 ] out $end
$upscope $end
$scope module mux2 $end
$var wire 1 ] sel $end
$var reg 32 t out [31:0] $end
$upscope $end
$scope module mux3 $end
$var wire 32 u choice1 [31:0] $end
$var wire 32 v choice3 [31:0] $end
$var wire 2 w sel [1:0] $end
$var wire 32 x choice2 [31:0] $end
$var parameter 32 y n $end
$var reg 32 z out [31:0] $end
$upscope $end
$scope module or_gate $end
$var wire 32 { operendB [31:0] $end
$var wire 32 | out [31:0] $end
$var wire 32 } operendA [31:0] $end
$var parameter 32 ~ n $end
$upscope $end
$scope module x $end
$var wire 32 !" operendA [31:0] $end
$var wire 32 "" operendB [31:0] $end
$var parameter 32 #" n $end
$var reg 32 $" out [31:0] $end
$upscope $end
$upscope $end
$scope module extendByExtop $end
$var wire 1 1 ExtOp $end
$var wire 16 %" imm16 [15:0] $end
$var wire 32 &" imm32 [31:0] $end
$upscope $end
$scope module ifu $end
$var wire 1 , branch $end
$var wire 1 & clk $end
$var wire 1 * jump $end
$var wire 1 F zero $end
$var wire 32 '" instruction [31:0] $end
$var wire 30 (" extend_imme [31:2] $end
$var wire 30 )" curAddr [31:2] $end
$var reg 30 *" nextAddr [31:2] $end
$scope module extend16to30 $end
$var wire 16 +" in [15:0] $end
$var wire 30 ," out [29:0] $end
$upscope $end
$scope module insMem $end
$var wire 32 -" InsAddr [31:0] $end
$var reg 32 ." InsData [31:0] $end
$upscope $end
$scope module pc $end
$var wire 1 & clk $end
$var wire 30 /" nextAddr [29:0] $end
$var reg 30 0" curAddr [29:0] $end
$upscope $end
$upscope $end
$scope module mem $end
$var wire 32 1" Address [31:0] $end
$var wire 1 0 WE $end
$var wire 1 & clk $end
$var wire 32 2" data [31:0] $end
$var parameter 32 3" n $end
$var reg 32 4" dataout [31:0] $end
$upscope $end
$scope module muxReg $end
$var wire 5 5" Rd [4:0] $end
$var wire 1 . RegDst $end
$var wire 5 6" Rt [4:0] $end
$var wire 5 7" Rw [4:0] $end
$upscope $end
$scope module regs $end
$var wire 1 & Clock $end
$var wire 5 8" Ra [4:0] $end
$var wire 5 9" Rb [4:0] $end
$var wire 1 E RegWr $end
$var wire 5 :" Rw [4:0] $end
$var wire 32 ;" busW [31:0] $end
$var parameter 32 <" n $end
$var reg 32 =" busA [31:0] $end
$var reg 32 >" busB [31:0] $end
$upscope $end
$upscope $end
$upscope $end
$upscope $end
$enddefinitions $end
$comment Show the parameter values. $end
$dumpall
b100000 <"
b100000 3"
b100000 #"
b100000 ~
b100000 y
b11 r
b100000 o
b100000 j
b1100100 #
b100000 "
b100000 !
$end
#0
$dumpvars
bx >"
bx ="
bx ;"
bx :"
bx 9"
bx 8"
bx 7"
bx 6"
bx 5"
bx 4"
bx 2"
bx 1"
bx 0"
b0 /"
bx ."
bx00 -"
bx ,"
bx +"
b0 *"
bx )"
bx ("
bx '"
bx &"
bx %"
bx $"
bx ""
bx !"
bx }
bx |
bx {
bx z
bx x
bx w
bx v
bx u
bx t
bx s
bx q
bx p
bx n
bx m
bx l
xk
bx i
xh
xg
bx f
xe
bx d
bx c
xb
bx a
x`
x_
bx ^
x]
bx \
bx [
xZ
xY
bx X
bx W
bx V
bx U
bx T
bx S
bx R
bx Q
bx P
bx O
bx N
bx M
bx L
bx K
bx J
bx I
xH
bx G
xF
xE
bx D
bx C
bx B
bx A
bx @
bx ?
bx >
bx =
x<
x;
x:
bx 9
x8
x7
bx 6
x5
x4
bx 3
x2
x1
x0
x/
x.
x-
x,
bx +
x*
bx )
x(
1'
0&
b0 %
b0 $
$end
#50000
0'
#100000
0Z
b11111111111111111111111111111111 [
b11111111111111111111111111111111 t
b11111111111111111111111111111111 v
0g
1]
1Y
bx000000000000000000000000 J
bx000000000000000000000000 4"
b1 O
b1 ;"
1h
0e
0F
b1 G
b1 a
b1 z
b1 1"
b1 f
b1 m
b1 u
0k
b0 P
b0 2"
b0 >"
b0 Q
b0 i
b0 n
b0 }
b0 ="
1E
b1 d
b1 l
b1 $"
0H
b0 ^
b0 p
b0 ""
b1 \
b1 x
b1 |
b0 c
b0 s
b0 w
0`
0b
0_
b1 V
b1 X
b1 {
b1 !"
12
11
1-
b0 3
b0 =
b0 D
b0 W
b0 q
b1 R
b1 7"
b1 :"
b1 L
b1 &"
0*
08
0,
0:
00
04
0/
07
1;
05
0(
0.
b0 ?
b0 C
0<
b1001 )
b1001 6
b1001 B
b1001 I
b1 S
b1 6"
b1 9"
b0 T
b0 8"
b0 U
b0 5"
b1 ("
b1 ,"
b1 +"
b1 M
b1 %"
b1 +
b1 9
b1 @
b1 N
b100100000000010000000000000001 K
b100100000000010000000000000001 '"
b100100000000010000000000000001 ."
b0 -"
b0 )"
b0 0"
b1 $
b1 %
1&
#110000
b1 *"
b1 /"
#200000
b1 P
b1 2"
b1 >"
0&
#300000
b0 P
b0 2"
b0 >"
b10 R
b10 7"
b10 :"
b10 S
b10 6"
b10 9"
b100100000000100000000000000001 K
b100100000000100000000000000001 '"
b100100000000100000000000000001 ."
b10 %
b10 $
b100 -"
b1 )"
b1 0"
1&
#310000
b10 *"
b10 /"
#400000
b1 P
b1 2"
b1 >"
0&
#500000
b0 P
b0 2"
b0 >"
b11 R
b11 7"
b11 :"
b11 S
b11 6"
b11 9"
b100100000000110000000000000001 K
b100100000000110000000000000001 '"
b100100000000110000000000000001 ."
b1000 -"
b10 )"
b10 0"
b11 $
b11 %
1&
#510000
b11 *"
b11 /"
#600000
b1 P
b1 2"
b1 >"
0&
#700000
bx P
bx 2"
bx >"
b100011 J
b100011 4"
1F
b0 G
b0 a
b0 z
b0 1"
b0 f
b0 m
b0 u
b0 \
b0 x
b0 |
b0 d
b0 l
b0 $"
b0 V
b0 X
b0 {
b0 !"
b100011 O
b100011 ;"
b100 R
b100 7"
b100 :"
b0 L
b0 &"
1/
17
0;
b100011 )
b100011 6
b100011 B
b100011 I
b100 S
b100 6"
b100 9"
b0 ("
b0 ,"
b0 +"
b0 M
b0 %"
b0 +
b0 9
b0 @
b0 N
b10001100000001000000000000000000 K
b10001100000001000000000000000000 '"
b10001100000001000000000000000000 ."
b100 %
b100 $
b1100 -"
b11 )"
b11 0"
1&
#710000
b100 *"
b100 /"
#800000
b100011 P
b100011 2"
b100011 >"
0&
#900000
bx P
bx 2"
bx >"
bx0000000000000000 J
bx0000000000000000 4"
0F
b10 G
b10 a
b10 z
b10 1"
b10 f
b10 m
b10 u
b10 \
b10 x
b10 |
b10 d
b10 l
b10 $"
b10 V
b10 X
b10 {
b10 !"
b10 O
b10 ;"
b101 R
b101 7"
b101 :"
b10 L
b10 &"
0/
07
1;
b1001 )
b1001 6
b1001 B
b1001 I
b101 S
b101 6"
b101 9"
b10 ("
b10 ,"
b10 +"
b10 M
b10 %"
b10 +
b10 9
b10 @
b10 N
b100100000001010000000000000010 K
b100100000001010000000000000010 '"
b100100000001010000000000000010 ."
b10000 -"
b100 )"
b100 0"
b101 $
b101 %
1&
#910000
b101 *"
b101 /"
#1000000
b10 P
b10 2"
b10 >"
0&
#1100000
1k
b1 P
b1 2"
b1 >"
b100011 Q
b100011 i
b100011 n
b100011 }
b100011 ="
0Z
0g
0e
b0 [
b0 t
b0 v
bx J
bx 4"
b100010 O
b100010 ;"
1h
0]
b100010 G
b100010 a
b100010 z
b100010 1"
b100010 f
b100010 m
b100010 u
0Y
b11111111111111111111111111111111 ^
b11111111111111111111111111111111 p
b11111111111111111111111111111111 ""
0E
02
b100011 \
b100011 x
b100011 |
b11111111111111111111111111111110 d
b11111111111111111111111111111110 l
b11111111111111111111111111111110 $"
1_
0-
01
b1 V
b1 X
b1 {
b1 !"
b100 3
b100 =
b100 D
b100 W
b100 q
b11 R
b11 7"
b11 :"
b1001 L
b1001 &"
1,
b100 ?
b100 C
1:
0;
b100 )
b100 6
b100 B
b100 I
b11 S
b11 6"
b11 9"
b100 T
b100 8"
b1001 ("
b1001 ,"
b1001 +"
b1001 M
b1001 %"
b1001 +
b1001 9
b1001 @
b1001 N
b10000100000110000000000001001 K
b10000100000110000000000001001 '"
b10000100000110000000000001001 ."
b110 %
b110 $
b10100 -"
b101 )"
b101 0"
1&
#1110000
b110 *"
b110 /"
#1200000
0&
#1300000
b100001 O
b100001 ;"
b100001 G
b100001 a
b100001 z
b100001 1"
b100001 f
b100001 m
b100001 u
b11111111111111111111111111111101 d
b11111111111111111111111111111101 l
b11111111111111111111111111111101 $"
b10 V
b10 X
b10 {
b10 !"
b10 P
b10 2"
b10 >"
b101 R
b101 7"
b101 :"
b1000 L
b1000 &"
b101 S
b101 6"
b101 9"
b1000 ("
b1000 ,"
b1000 +"
b1000 M
b1000 %"
b1000 +
b1000 9
b1000 @
b1000 N
b10000100001010000000000001000 K
b10000100001010000000000001000 '"
b10000100001010000000000001000 ."
b11000 -"
b110 )"
b110 0"
b111 $
b111 %
1&
#1310000
b111 *"
b111 /"
#1400000
0&
#1500000
1E
1-
1`
1b
b100 R
b100 7"
b100 :"
b101 3
b101 =
b101 D
b101 W
b101 q
b10000000100010 L
b10000000100010 &"
b101 >
b101 A
0,
0:
1(
1.
b1 ?
b1 C
1<
b0 )
b0 6
b0 B
b0 I
b100 U
b100 5"
b10000000100010 ("
b10000000100010 ,"
b10000000100010 +"
b10000000100010 M
b10000000100010 %"
b100010 +
b100010 9
b100010 @
b100010 N
b100001010010000000100010 K
b100001010010000000100010 '"
b100001010010000000100010 ."
b1000 %
b1000 $
b11100 -"
b111 )"
b111 0"
1&
#1510000
b1000 *"
b1000 /"
#1600000
b11111 O
b11111 ;"
b11111 G
b11111 a
b11111 z
b11111 1"
b11111 f
b11111 m
b11111 u
b100001 Q
b100001 i
b100001 n
b100001 }
b100001 ="
0&
#1700000
b100011 J
b100011 4"
1F
b0 Q
b0 i
b0 n
b0 }
b0 ="
0Z
0g
b0 \
b0 x
b0 |
b0 O
b0 ;"
0k
b0 V
b0 X
b0 {
b0 !"
b11111111111111111111111111111111 [
b11111111111111111111111111111111 t
b11111111111111111111111111111111 v
b0 G
b0 a
b0 z
b0 1"
1h
b0 d
b0 l
b0 $"
12
1]
b0 f
b0 m
b0 u
1Y
b0 ^
b0 p
b0 ""
11
0`
0b
0_
b0 3
b0 =
b0 D
b0 W
b0 q
b101 R
b101 7"
b101 :"
b0 L
b0 &"
1;
0(
0.
b0 ?
b0 C
0<
b1001 )
b1001 6
b1001 B
b1001 I
b0 T
b0 8"
b0 U
b0 5"
b0 ("
b0 ,"
b0 +"
b0 M
b0 %"
b0 +
b0 9
b0 @
b0 N
b100100000001010000000000000000 K
b100100000001010000000000000000 '"
b100100000001010000000000000000 ."
b100000 -"
b1000 )"
b1000 0"
b1001 $
b1001 %
1&
#1710000
b1001 *"
b1001 /"
#1800000
b0 P
b0 2"
b0 >"
0&
#1900000
b100001 Q
b100001 i
b100001 n
b100001 }
b100001 ="
0Z
0g
b0 [
b0 t
b0 v
1k
bx J
bx 4"
b100001 O
b100001 ;"
0F
1h
0]
b100001 G
b100001 a
b100001 z
b100001 1"
b100001 f
b100001 m
b100001 u
0Y
b11111111111111111111111111111111 ^
b11111111111111111111111111111111 p
b11111111111111111111111111111111 ""
0E
02
b100001 \
b100001 x
b100001 |
b11111111111111111111111111111111 d
b11111111111111111111111111111111 l
b11111111111111111111111111111111 $"
1_
0-
01
b0 V
b0 X
b0 {
b0 !"
b100 3
b100 =
b100 D
b100 W
b100 q
b101 L
b101 &"
1,
b100 ?
b100 C
1:
0;
b100 )
b100 6
b100 B
b100 I
b100 T
b100 8"
b101 ("
b101 ,"
b101 +"
b101 M
b101 %"
b101 +
b101 9
b101 @
b101 N
b10000100001010000000000000101 K
b10000100001010000000000000101 '"
b10000100001010000000000000101 ."
b1010 %
b1010 $
b100100 -"
b1001 )"
b1001 0"
1&
#1910000
b1010 *"
b1010 /"
#2000000
0&
#2100000
bx0000000000000000 J
bx0000000000000000 4"
b1 V
b1 X
b1 {
b1 !"
b1 \
b1 x
b1 |
b1 P
b1 2"
b1 >"
b1 Q
b1 i
b1 n
b1 }
b1 ="
b0 [
b0 t
b0 v
0]
0Z
0H
0g
b10 O
b10 ;"
0k
1E
b10 G
b10 a
b10 z
b10 1"
1h
b1 d
b1 l
b1 $"
1-
b10 f
b10 m
b10 u
1Y
b0 ^
b0 p
b0 ""
1`
1b
0_
b1 3
b1 =
b1 D
b1 W
b1 q
b11 R
b11 7"
b11 :"
b1100000100000 L
b1100000100000 &"
b1 >
b1 A
0,
0:
1(
1.
b1 ?
b1 C
1<
b0 )
b0 6
b0 B
b0 I
b10 S
b10 6"
b10 9"
b1 T
b1 8"
b11 U
b11 5"
b1100000100000 ("
b1100000100000 ,"
b1100000100000 +"
b1100000100000 M
b1100000100000 %"
b100000 +
b100000 9
b100000 @
b100000 N
b1000100001100000100000 K
b1000100001100000100000 '"
b1000100001100000100000 ."
b101000 -"
b1010 )"
b1010 0"
b1011 $
b1011 %
1&
#2110000
b1011 *"
b1011 /"
#2200000
0&
#2300000
bx000000000000000000000000 J
bx000000000000000000000000 4"
b1 O
b1 ;"
b1 G
b1 a
b1 z
b1 1"
b1 f
b1 m
b1 u
b0 d
b0 l
b0 $"
b0 V
b0 X
b0 {
b0 !"
b11111111111111111111111111111111 [
b11111111111111111111111111111111 t
b11111111111111111111111111111111 v
12
1]
11
0`
0b
b0 3
b0 =
b0 D
b0 W
b0 q
b1 R
b1 7"
b1 :"
b0 L
b0 &"
1;
0(
0.
b0 ?
b0 C
0<
b1001 )
b1001 6
b1001 B
b1001 I
b1 S
b1 6"
b1 9"
b10 T
b10 8"
b0 U
b0 5"
b0 ("
b0 ,"
b0 +"
b0 M
b0 %"
b0 +
b0 9
b0 @
b0 N
b100100010000010000000000000000 K
b100100010000010000000000000000 '"
b100100010000010000000000000000 ."
b1100 %
b1100 $
b101100 -"
b1011 )"
b1011 0"
1&
#2310000
b1100 *"
b1100 /"
#2400000
0&
#2500000
bx0000000000000000 J
bx0000000000000000 4"
b10 O
b10 ;"
b10 G
b10 a
b10 z
b10 1"
b10 \
b10 x
b10 |
b10 f
b10 m
b10 u
b10 Q
b10 i
b10 n
b10 }
b10 ="
b10 R
b10 7"
b10 :"
b10 S
b10 6"
b10 9"
b11 T
b11 8"
b100100011000100000000000000000 K
b100100011000100000000000000000 '"
b100100011000100000000000000000 ."
b110000 -"
b1100 )"
b1100 0"
b1101 $
b1101 %
1&
#2510000
b1101 *"
b1101 /"
#2600000
b10 P
b10 2"
b10 >"
0&
#2700000
b0 P
b0 2"
b0 >"
b0 Q
b0 i
b0 n
b0 }
b0 ="
bx000000000000000000000000 J
bx000000000000000000000000 4"
b1 O
b1 ;"
b1 G
b1 a
b1 z
b1 1"
b1 f
b1 m
b1 u
b1 \
b1 x
b1 |
b1 d
b1 l
b1 $"
b1 V
b1 X
b1 {
b1 !"
b101 R
b101 7"
b101 :"
b1 L
b1 &"
b101 S
b101 6"
b101 9"
b101 T
b101 8"
b1 ("
b1 ,"
b1 +"
b1 M
b1 %"
b1 +
b1 9
b1 @
b1 N
b100100101001010000000000000001 K
b100100101001010000000000000001 '"
b100100101001010000000000000001 ."
b1110 %
b1110 $
b110100 -"
b1101 )"
b1101 0"
1&
#2710000
b1110 *"
b1110 /"
#2800000
bx0000000000000000 J
bx0000000000000000 4"
b10 O
b10 ;"
b10 G
b10 a
b10 z
b10 1"
b10 f
b10 m
b10 u
b1 P
b1 2"
b1 >"
b1 Q
b1 i
b1 n
b1 }
b1 ="
0&
#2900000
1F
b0 P
b0 2"
b0 >"
b0 Q
b0 i
b0 n
b0 }
b0 ="
b100011 J
b100011 4"
b0 O
b0 ;"
b0 G
b0 a
b0 z
b0 1"
b0 f
b0 m
b0 u
0E
02
b0 \
b0 x
b0 |
b0 d
b0 l
b0 $"
0-
01
b0 V
b0 X
b0 {
b0 !"
b0 R
b0 7"
b0 :"
b1001 L
b1001 &"
1*
18
0;
b10 )
b10 6
b10 B
b10 I
b0 S
b0 6"
b0 9"
b0 T
b0 8"
b1001 ("
b1001 ,"
b1001 +"
b1001 M
b1001 %"
b1001 +
b1001 9
b1001 @
b1001 N
b1000000000000000000000001001 K
b1000000000000000000000001001 '"
b1000000000000000000000001001 ."
b111000 -"
b1110 )"
b1110 0"
b1111 $
b1111 %
1&
#2910000
b1001 *"
b1001 /"
#3000000
0&
#3100000
b1 V
b1 X
b1 {
b1 !"
b100001 \
b100001 x
b100001 |
b1 P
b1 2"
b1 >"
b100001 Q
b100001 i
b100001 n
b100001 }
b100001 ="
0Z
0g
bx J
bx 4"
b100000 O
b100000 ;"
b0 [
b0 t
b0 v
1k
0F
b100000 G
b100000 a
b100000 z
b100000 1"
1h
0]
b11111111111111111111111111111110 d
b11111111111111111111111111111110 l
b11111111111111111111111111111110 $"
b100000 f
b100000 m
b100000 u
0Y
b11111111111111111111111111111111 ^
b11111111111111111111111111111111 p
b11111111111111111111111111111111 ""
1_
b100 3
b100 =
b100 D
b100 W
b100 q
b101 R
b101 7"
b101 :"
b101 L
b101 &"
0*
08
1,
b100 ?
b100 C
1:
b100 )
b100 6
b100 B
b100 I
b101 S
b101 6"
b101 9"
b100 T
b100 8"
b101 ("
b101 ,"
b101 +"
b101 M
b101 %"
b101 +
b101 9
b101 @
b101 N
b10000100001010000000000000101 K
b10000100001010000000000000101 '"
b10000100001010000000000000101 ."
b10000 %
b10000 $
b100100 -"
b1001 )"
b1001 0"
1&
#3110000
b1010 *"
b1010 /"
#3200000
0&
#3300000
bx00000000 J
bx00000000 4"
b10 V
b10 X
b10 {
b10 !"
b11 \
b11 x
b11 |
b10 P
b10 2"
b10 >"
b1 Q
b1 i
b1 n
b1 }
b1 ="
b0 [
b0 t
b0 v
0]
0Z
0H
0g
b11 O
b11 ;"
0k
1E
b11 G
b11 a
b11 z
b11 1"
1h
b10 d
b10 l
b10 $"
1-
b11 f
b11 m
b11 u
1Y
b0 ^
b0 p
b0 ""
1`
1b
0_
b1 3
b1 =
b1 D
b1 W
b1 q
b11 R
b11 7"
b11 :"
b1100000100000 L
b1100000100000 &"
0,
0:
1(
1.
b1 ?
b1 C
1<
b0 )
b0 6
b0 B
b0 I
b10 S
b10 6"
b10 9"
b1 T
b1 8"
b11 U
b11 5"
b1100000100000 ("
b1100000100000 ,"
b1100000100000 +"
b1100000100000 M
b1100000100000 %"
b100000 +
b100000 9
b100000 @
b100000 N
b1000100001100000100000 K
b1000100001100000100000 '"
b1000100001100000100000 ."
b101000 -"
b1010 )"
b1010 0"
b10001 $
b10001 %
1&
#3310000
b1011 *"
b1011 /"
#3400000
0&
#3500000
b1 P
b1 2"
b1 >"
b10 Q
b10 i
b10 n
b10 }
b10 ="
bx0000000000000000 J
bx0000000000000000 4"
b10 O
b10 ;"
b10 G
b10 a
b10 z
b10 1"
b10 f
b10 m
b10 u
b10 \
b10 x
b10 |
b0 d
b0 l
b0 $"
b0 V
b0 X
b0 {
b0 !"
b11111111111111111111111111111111 [
b11111111111111111111111111111111 t
b11111111111111111111111111111111 v
12
1]
11
0`
0b
b0 3
b0 =
b0 D
b0 W
b0 q
b1 R
b1 7"
b1 :"
b0 L
b0 &"
1;
0(
0.
b0 ?
b0 C
0<
b1001 )
b1001 6
b1001 B
b1001 I
b1 S
b1 6"
b1 9"
b10 T
b10 8"
b0 U
b0 5"
b0 ("
b0 ,"
b0 +"
b0 M
b0 %"
b0 +
b0 9
b0 @
b0 N
b100100010000010000000000000000 K
b100100010000010000000000000000 '"
b100100010000010000000000000000 ."
b10010 %
b10010 $
b101100 -"
b1011 )"
b1011 0"
1&
#3510000
b1100 *"
b1100 /"
#3600000
b10 P
b10 2"
b10 >"
0&
#3700000
bx00000000 J
bx00000000 4"
b11 O
b11 ;"
b11 G
b11 a
b11 z
b11 1"
b11 \
b11 x
b11 |
b11 f
b11 m
b11 u
b11 Q
b11 i
b11 n
b11 }
b11 ="
b10 R
b10 7"
b10 :"
b10 S
b10 6"
b10 9"
b11 T
b11 8"
b100100011000100000000000000000 K
b100100011000100000000000000000 '"
b100100011000100000000000000000 ."
b110000 -"
b1100 )"
b1100 0"
b10011 $
b10011 %
1&
#3710000
b1101 *"
b1101 /"
#3800000
b11 P
b11 2"
b11 >"
0&
#3900000
b1 \
b1 x
b1 |
b1 P
b1 2"
b1 >"
b1 Q
b1 i
b1 n
b1 }
b1 ="
bx0000000000000000 J
bx0000000000000000 4"
b10 O
b10 ;"
b10 G
b10 a
b10 z
b10 1"
b10 f
b10 m
b10 u
b1 d
b1 l
b1 $"
b1 V
b1 X
b1 {
b1 !"
b101 R
b101 7"
b101 :"
b1 L
b1 &"
b101 S
b101 6"
b101 9"
b101 T
b101 8"
b1 ("
b1 ,"
b1 +"
b1 M
b1 %"
b1 +
b1 9
b1 @
b1 N
b100100101001010000000000000001 K
b100100101001010000000000000001 '"
b100100101001010000000000000001 ."
b10100 %
b10100 $
b110100 -"
b1101 )"
b1101 0"
1&
#3910000
b1110 *"
b1110 /"
#4000000
bx00000000 J
bx00000000 4"
b11 O
b11 ;"
b11 G
b11 a
b11 z
b11 1"
b11 \
b11 x
b11 |
b11 f
b11 m
b11 u
b10 P
b10 2"
b10 >"
b10 Q
b10 i
b10 n
b10 }
b10 ="
0&
#4100000
1F
b0 P
b0 2"
b0 >"
b0 Q
b0 i
b0 n
b0 }
b0 ="
b100011 J
b100011 4"
b0 O
b0 ;"
b0 G
b0 a
b0 z
b0 1"
b0 f
b0 m
b0 u
0E
02
b0 \
b0 x
b0 |
b0 d
b0 l
b0 $"
0-
01
b0 V
b0 X
b0 {
b0 !"
b0 R
b0 7"
b0 :"
b1001 L
b1001 &"
1*
18
0;
b10 )
b10 6
b10 B
b10 I
b0 S
b0 6"
b0 9"
b0 T
b0 8"
b1001 ("
b1001 ,"
b1001 +"
b1001 M
b1001 %"
b1001 +
b1001 9
b1001 @
b1001 N
b1000000000000000000000001001 K
b1000000000000000000000001001 '"
b1000000000000000000000001001 ."
b111000 -"
b1110 )"
b1110 0"
b10101 $
b10101 %
1&
#4110000
b1001 *"
b1001 /"
#4200000
0&
#4300000
b10 V
b10 X
b10 {
b10 !"
b100011 \
b100011 x
b100011 |
b10 P
b10 2"
b10 >"
b100001 Q
b100001 i
b100001 n
b100001 }
b100001 ="
0Z
0g
bx J
bx 4"
b11111 O
b11111 ;"
b0 [
b0 t
b0 v
1k
0F
b11111 G
b11111 a
b11111 z
b11111 1"
1h
0]
b11111111111111111111111111111101 d
b11111111111111111111111111111101 l
b11111111111111111111111111111101 $"
b11111 f
b11111 m
b11111 u
0Y
b11111111111111111111111111111111 ^
b11111111111111111111111111111111 p
b11111111111111111111111111111111 ""
1_
b100 3
b100 =
b100 D
b100 W
b100 q
b101 R
b101 7"
b101 :"
b101 L
b101 &"
0*
08
1,
b100 ?
b100 C
1:
b100 )
b100 6
b100 B
b100 I
b101 S
b101 6"
b101 9"
b100 T
b100 8"
b101 ("
b101 ,"
b101 +"
b101 M
b101 %"
b101 +
b101 9
b101 @
b101 N
b10000100001010000000000000101 K
b10000100001010000000000000101 '"
b10000100001010000000000000101 ."
b10110 %
b10110 $
b100100 -"
b1001 )"
b1001 0"
1&
#4310000
b1010 *"
b1010 /"
#4400000
0&
#4500000
b11 V
b11 X
b11 {
b11 !"
b11 \
b11 x
b11 |
b11 P
b11 2"
b11 >"
b10 Q
b10 i
b10 n
b10 }
b10 ="
b0 [
b0 t
b0 v
0]
0Z
0H
0g
b101 O
b101 ;"
0k
1E
b101 G
b101 a
b101 z
b101 1"
1h
b11 d
b11 l
b11 $"
1-
b101 f
b101 m
b101 u
1Y
b0 ^
b0 p
b0 ""
1`
1b
0_
b1 3
b1 =
b1 D
b1 W
b1 q
b11 R
b11 7"
b11 :"
b1100000100000 L
b1100000100000 &"
0,
0:
1(
1.
b1 ?
b1 C
1<
b0 )
b0 6
b0 B
b0 I
b10 S
b10 6"
b10 9"
b1 T
b1 8"
b11 U
b11 5"
b1100000100000 ("
b1100000100000 ,"
b1100000100000 +"
b1100000100000 M
b1100000100000 %"
b100000 +
b100000 9
b100000 @
b100000 N
b1000100001100000100000 K
b1000100001100000100000 '"
b1000100001100000100000 ."
b101000 -"
b1010 )"
b1010 0"
b10111 $
b10111 %
1&
#4510000
b1011 *"
b1011 /"
#4600000
0&
